<?xml version="1.0" encoding="UTF-8" standalone="no"?>
<svg
   xmlns:dc="http://purl.org/dc/elements/1.1/"
   xmlns:cc="http://creativecommons.org/ns#"
   xmlns:rdf="http://www.w3.org/1999/02/22-rdf-syntax-ns#"
   xmlns:svg="http://www.w3.org/2000/svg"
   xmlns="http://www.w3.org/2000/svg"
   xmlns:xlink="http://www.w3.org/1999/xlink"
   xmlns:sodipodi="http://sodipodi.sourceforge.net/DTD/sodipodi-0.dtd"
   xmlns:inkscape="http://www.inkscape.org/namespaces/inkscape"
   width="210mm"
   height="297mm"
   viewBox="0 0 210 297"
   version="1.1"
   id="svg8"
   inkscape:version="1.0.2-2 (e86c870879, 2021-01-15)"
   sodipodi:docname="owuSUSE.svg"
   inkscape:export-filename="D:\opensuse-wallpapers\Resources\owuSUSE.png"
   inkscape:export-xdpi="431.92514"
   inkscape:export-ydpi="431.92514">
  <defs
     id="defs2" />
  <sodipodi:namedview
     id="base"
     pagecolor="#ffffff"
     bordercolor="#666666"
     borderopacity="1.0"
     inkscape:pageopacity="0.0"
     inkscape:pageshadow="2"
     inkscape:zoom="1.979899"
     inkscape:cx="357.79396"
     inkscape:cy="531.94122"
     inkscape:document-units="mm"
     inkscape:current-layer="layer1"
     inkscape:document-rotation="0"
     showgrid="false"
     inkscape:snap-global="false"
     inkscape:window-width="1920"
     inkscape:window-height="1017"
     inkscape:window-x="1912"
     inkscape:window-y="32"
     inkscape:window-maximized="1" />
  <metadata
     id="metadata5">
    <rdf:RDF>
      <cc:Work
         rdf:about="">
        <dc:format>image/svg+xml</dc:format>
        <dc:type
           rdf:resource="http://purl.org/dc/dcmitype/StillImage" />
        <dc:title />
      </cc:Work>
    </rdf:RDF>
  </metadata>
  <g
     inkscape:label="Ebene 1"
     inkscape:groupmode="layer"
     id="layer1">
    <image
       xlink:href="data:image/jpeg;base64,/9j/4AAQSkZJRgABAQEASABIAAD/2wBDAAQDAwQDAwQEBAQFBQQFBwsHBwYGBw4KCggLEA4RERAO EA8SFBoWEhMYEw8QFh8XGBsbHR0dERYgIh8cIhocHRz/2wBDAQUFBQcGBw0HBw0cEhASHBwcHBwc HBwcHBwcHBwcHBwcHBwcHBwcHBwcHBwcHBwcHBwcHBwcHBwcHBwcHBwcHBz/wgARCAE3AcIDASIA AhEBAxEB/8QAGwAAAgMBAQEAAAAAAAAAAAAABAUCAwYAAQf/xAAaAQADAQEBAQAAAAAAAAAAAAAA AQIDBAUG/9oADAMBAAIQAxAAAAHWe+wcS65Yk19XlpXyFuRfbRZJdaPZFKcp9FuZ8ndbMA0UVMl7 RqrpTEbi5h7WSQ7XeuPTbPi6ubeKX7rMJZoc0bPKtuqKY3QPlolkocXEocxvWitKS6fSCZQ5VhGr 66zqlcMZBWP40vFncf8AUfnkizRZzaCznWdF7G6sjs47FZ4CBTQb5kskL0V1lNMs62m+S28G5O+w WScgDpBlF+8CRjYL88jZOsI5ZpbgGtOdSoWtDEDACGsr9riY21WMKtEKSV1HgquYBNareyvI0tcb A8B5Fc0J1kgW+lVpkW9Ng+bfLkfNNxi9NKX8P2em6Oq7u4/YSpQSNCZMZiEijdKMkZzrkLqrukvq 9uGGcLdJOF0WCoNBbJ8qF+o4qEQ7zTt1NwkfVd2V2+NemMjZHKY2+XXNJEOTIVt6gWMwWhf0IsI6 rCbInjJ+BY8rbx5bebUW6tE/Oom66/PBfM9LnNDKA5h066IjGaLu4zIEiw7xr6WqWHUEyGKuSiNO 1Km3zpRMKLUz6KbgtjTIfQ9qROFM8xLVoVebGJrrp6HJHAXpmfDBIJ30XVMYzGlnlKjaUGMPC9oX Uw0paOvzitl4ABZrilxumLedJWNRpnSqBvlJP5wyF8mWfVdOyLaYXXeh5+jr9lnt5WRQ0fYEOi6u XKJ2+VCNqFKEJXZVmjraqmzqI8iPnk5Kut8TjHz2UvFYrIqxG2R3TW/GGlHjUkIqGKDT8vo9bPdZ X6XpJ9ahRpcFFYWejvltG+ThnnynGu0+D0MUxFuhnpWpZrk8tCsiZr6PTZZVgHVxuKxc7rP02rq5 uiplRF+++mNVRstJGFKBU2wEthFXhXN39GhFlwvZoz0G9ltQAabUWVkCsA2CrNRJqrQYjvANXnsJ pPop+RvU7MX9nOqzzpTOlftY1QxuVDVLuK4sNDps3saQ/GCYbSGnMXz44XoCer7O2j5A67uQHP6O VJhaWCMgce+LNGoJEKMcMI6oRfQ4nnxw0FeS9b1/YS4N15iWAabkNiT4QK1I6qXsmdlp4Q8gm+iD DwduuJTwb0kCK0wxHlVNABRorqh70xVbBcSUUifhGO5mAXhx20EnrLufWKdkhxST2mlDXh+y0aSj X6PHpIqqdpcsMg3z1JNtrT9rDIFNT4gps0o9AOQ+WJlClLESsgUnIQcxh0KQQdyV3sdcliLSQU8x hFXOXcYJWGhbYIlp0pD8TjwcIou4SIigSGCaZ7Nykawqop3Tzt0vWr2Ho0C44LOlIrJXKYd3Rq2R bfD+n5k2AQGkdq1Otx3aLiK0xFRGeToEriUUuO8aotmuTLXFiS5wIrAFnKkDqgXDA7RTxL7DLxiy iQFEaRkG1jmBZTRczrPZINA5gyuspOkUV55NNHVdghr1ReWwwB8BNGI6+iysKCqxW1WTBHdy13GL 1avt89GjfH1K7SRYRrZ4SgRyUiktAV6MEZxHAyFUwuG61CgoBwigEoga828xmdcAnI61Q0ZVxq0K CIkoI9AuAI9O2ZAq0YLaLxBFjVHJo9Smrl/QvQmHJECwJ+IEx8GkNAn2rQi68HqrPj6NL0sPh+22 3aUavp43h2WJbcepeoOR2jiacP11BSQYmoIEHQ3CGOCsMsQLK7qg8PW3AyIsXMlES+WofpmgMkbv PtM6DoJ5x4gZRQjihjpNwbCFIalkEga232XYbW4ltQ9BjvPzKrAj5EvPVhEtgvJgOchpIvjGwQXE 9tWZ9436JARmLLtMWcFnVlaKw+Fuxm32VZZ2tocqESIWOWq/K5MGsnJMFuqPAy1WXSEs9rln0EKW nmdcpUOfbeGpaKnyaJzmtLc1k3jNXGAL0E+j+TR2hQaSHPPTh4uBPeX87vqh5m59Cdqy+ie78lV5 mE9X2CzoAU/pLJprpTIoiJNn6zKbXoiqk1ZrKlOQo572i27rYk+sqbar/WCQYrRDEQjLgwVNxxIC OaqUE2oNGbjNjMAbhBkVhJgaNVobkOFBoCgtw4a7SHny4ccFzRnfXIXkR4b0cXbEW5sktSRY3Mzp PW7YUg9Az5J3HKWwNF6vQbTRXm7/AAc5vbTZEd+Ga8fYqBaJGjj2fvsht95GEpt3iYpgSUWgPjRk yGirDlOlEMJjGsBSaiEWW9zL6eqD1SV60XYrppO1A9qAS9oRL9PGyvPFxKjzzZ0PqcbEdq0Feo7q UUaU8vyXlv6YV860PKtZQCZghuY9SwlmZp9rpf1oaA07zB/Zt4z5enUbxR8r+gfJ8ndH0vGrPqXz XfaqMlV+hADY0NZdoJOGVrcFp8xirO9mvBZCYxfT77iWjFEUk/uoA2aBRq0nSKevoojp8hrU9Yuz WhlJUVNHm5MIBUKjVN12lLZOANF3vhkOATgN0qLkDSbucXLGfonYPs1n/CPfR2GHZludP9OxzPoT cWIbnG0amGAiNP8AR1E2A2+qGIbh2jm1nxXec5yg+qfArywWjKQjq4Vz9A8RVUZPc7xnShdmdvm+ us2QFfu2FThYmR7vfjuU01w95i6JAA4XLbalp4u9ZZ7C5uZC0gLqOjRH2n2C/velZ93pDOhoPoa3 TbJXmN6s0E5FvmaiVVNlAzQlJTnNllVU6/YrWT9ezcq899HxXLIVjMPmmksM/Eps64cGywXNMmKl gN+nI7QsyG3xfqPygm3ZlGLNjFRxmlQ49KUgvzm7AxnDu8/mzbeOdeX4F22MzrDF69drlkSfseGm 8TbsMteQm2s+r6Yz6vtF83NmZk1ynXZve/bM7rZCDV9UJh5n0Oa3AmZqxkklUStZBmBdS1RCTRar h05rWrzVI/NAVvCeYzOFqGRX77KsKXEJ6eNB2TPxuuyvqsEm6vuJfRMnpsLFxevTeVpkfdHLs6sR vdMpU5ZpoBk1tsKUzc9UVplsseKj2z1RTttWU5LAtsdv3z7gwoCu6NdI+yWncOWuHW4S7RB18zZk rmLsa/Qs9IwZu1vuMYLt89paR0kZ7acG8apY4b6V8g5ZYRHHwd9kvGE3xLpC2woRo7lvqNRnS5bl NVpHaPiEmkzaKZmT8GbJk5Pu7N1ZinOM6O7EKtI+s1J0FZlPsmTUa2n0zpUgrcpT02YoudR5nxOT H7sAcPu41ZX3a1a/7uiWWj7twQbuyhgj7pM2H3cOl2m7vRG5fd1HmM7ueHhHdyqLbu6CoruszAXd yPYj92NBh92rZhd3pNoL3C1WZ7sHNT3YarvO6uspl3Yv54f3VgZs+7TnZJu7ozRe91LKtO5Mzu5n /8QAKhAAAgIDAAICAgMAAwEAAwAAAQIAAwQREhMhBSIUMRAjMhUzQSQGIEL/2gAIAQEAAQUCLsZ2 xb9QWljtGp8nAgedRdz9QrMj4nHyBd8NbREUqa03CnpMdQfIqhrWY+QxC2/Ctk/GgongENEfHn48 tq1CIRBKTHr6VxyYBGBEx2+1I9Xen1sagXcVYohEMb9+Pc8Euo2jJw6j+11/p7nAU8cx1bVjMIjH S2Aw76H78qmAanUBgn/lmPVYDg6jrxLHhb61AbVq5/7/AJZbffSvAAZxueISxVEyNRv2f4UxLNjI H8BtTrcx/b46+spJSm18UWuBYBDGnPsJAkev651ZWys/2FN08xVjPqeb6W1hmQe6wbCSRaqhQTpg 5MP3G9xW9mb0AfWgJfh1vLsS2ufom3iDO1P+RVmrs9C+LYRPyNRsuWZUut6m4f4UxWjeww1/GpiL t8ZfV9e5Qk4gScfwROIB9gJqPMyoFf8AFqPusn2f0o6B117B8NjTyWpLC/FPuEe9kT1ByYranQ/g AELP9H/JyMSu5cnByaLbXFVq21O1WUEI+8Fi+N30XDNPxWYXV+MQ/wAagi+5av8AOF/vHH1sHqv/ AFqahEIn/mvZHsfxd7mQv9Vg/sp2EJO6UIAYiftzXyzqZZ7SutNpTpXZuh7PQE/U6UjQaaEdtFIC BGO4sZehmfFV5K2/F+EVDS41kUiEg2IgceP651fr+B/KmONgrozD/wB43+W/SH7Af/oYE1LP3v1u Mftk/wDXd/20e1KHYPijN9gRGY7OoNIFsVC+y52tm9zmdAEWmK24DuEbnqV6MHs+kh2IBuZFQsVs A4zUaDk6H7mIwMc+s8+v4H8iLLK5qYa/ag6EJ5sRvrfkCpb8izp2AHmOx6Vv2f11N/a8/S//ALMU /WWHQUgy3/djlYv9iKGESlRbU51ksNj1Z/uONhSN6M96V5v6kgQsRPcYmFtTyCHRGVjaitte5j2a Y2ArnN6/gfwZuK0/0LE1MT91TcektGykUtkHId05yHv7tx18l7P763CYwjfV7v8AryBp8VvW5+Z5 R8c7XF/qbrQiebQVtzx6rUBlFSXpoB/IKjWegqEw7negutgnQOkLksz+i3o/ac9QNCY9QE8YYGvU awqturVfHYTREEEP8K0Q+2AIxF09C7ACKPkMkzy6qT9eRv8AkOja2HcohXZCaUzqWD0HBTPGrcX9 Qc23YFmsVmbRqG/8RkDMjEqFCx7vtXoxm6KDcD9F1O26rijsdCb4nXU63DGWKeCU9zYEsBVtx/vX Zd42rtV41aNLKQs/UMP8BtRLdzEqNjllql9s+UvUV/H5KmyysubMZK1TLJdTuY9/LjRVhDDohjy2 d/rH9L0Yah38ewLrcNq4M8SEOQWLMinJ89KU9KzGBFCaMreCw2S1AQvYM2VG/RPvnYn+j+4f3rcZ gwI9o3MzBBtYuW4n5PUHsNGiwgyv/VCfh475HuzLMfm6PSgbzEV6a6VoyHHbqwkmqi/qsWdRh/GQ gmSdnHX6amRjqtlL6jvXMfJXz2b1yGBEwUWklum2JvsvtAynRyPsW1FBYfsoYq6LlRBshCQqfqfX QIUghjeo21UyV6WczmI+p/oODuio9fjqy4ODvMyn2f8AMtJd9aA1CQYlZEotK2Z+Tair9qMb3Wy8 wPNbli7XLHL4v/XoQr2HqsrmYv0DbuVgwcMpKWOCDyaGCBUJ6m4X01iiA+mBEHTQU2b5eMlsB8ce 3a05A014K3uyKl3lT/MPtA50PsLF5b+OZWZXR5D4PHFyADUviotfcsUtHqCzf1Z5ZeoHN1478I8j ZyYCNgzGpDQiMmor6jsCuePvjf53O3668h+Rq/rxPjHrs46bHGrGbuInjBXYI0P8oHV7fHGr+q49 WjfXXDnIJ+VuflED8tln5ZAOYkS3HaMMZ5+OtijAaV4zrCrS/wDrsq+xzKtH+etTDvEOnWnAXyZF vT33DbncYKTbzyLEWIMeWZSJB5cgCuxba0N8bPt+HbHzFzqterU1Hs5mY/UxTtZ6survqY2obrKa XSePZfaWrYbLbwa0f6GqwBSPKSkORpWyX219hhdKybrFse5uUyCC95aVWz8gkh1M8uw+SlQXObX/ ACGouejk37hyaq2a2i6NVhgquKznBwytnxHU/wCMykajDuQZd2pZcfI1y9F269SwqJbUjxP9Y+J3 K6vAvgFlj1iMq5NCoKF8sss9XNLpR6nUsu8Th/IB6ltnFOPl+Y277NZe521OV2WCnviWWdHrUfIc 2WO/iS53h7c9ze51NkqmiWsVVpyjL22yDk+TUZkEFg58w0mTPPueSE11CrMKRM12S3LtJe8TyB2Y 6b93o/uz7gJ78DLKCVWvyFFRRMrkNWRCvQsXmF5Z7lq+qhOZb/8ASEK4jP8AIU2Vm8mYlldNleYu UK6+I+i11iFiSI7dG90J272GzShtAHVjtpP2UBDL9p5tWLHRuUPJtJ0oGrLeYtjsWs+vkKKq+q+g F9R7Ar1N3Gv9WsY1YII2+z0N7LahO7AntVYSugOAOZ//AHcS9lGRzK37Fg2LB75l/wCqzpou66jS tlyUarUbdaUFn4rEg8zJIWyspZVZmKB5+2sO5ZsVeTin7BFYTolEOo1vCVWnZ1FX6FWACBY3O08a l16eioK1h9+2CP23lVT2rWWMWs5TyvWm2Ildmy7+SCiZHPh+rorIs5cSk9lv60azRDcq5n6mNkER 7mIaxZsTIX1Uum3GxlsRbB5y+18zapO6cFQcTTCP95lO0Kni79e6lPMP2qdtUtc6wWiBgC2rRVos 1Q5P6701bbV2/uYuApldgIvPvriVnZIKyv8A3d9QqHq/7kV9RkFIQlyj8y4CxKW4JoSyK/4xw62M ydxUYjTadHMSks6UDlzy37P+Y77VD9+ljbWq3H9eFEW42AYo81fxqg4RDE+wG9udmWenROlVfdTN yn2jV9t4qwP0EbtvHoWEccfd6niKy11/awHp9hW7CvcNy0DihVBC/wBwT+xq3sIcd28lANQDkfjC OxBDklqeWFv4tuly0whxMth5ata+pnIgVZ0Fln2jUuIehASQTydzKbcYJZCnYrpW3G+Jx3x6sVq1 hs5FmV6rO7bgGDr3LIo4FQIY16su0isQwVQH/wCu7oEf9taJGHv7irgqfaovffo2EkS/6xBym9zy xfIB7S4aRVHcT2RsM4WaMH9iWovddv41mDb09nttQA/wSdmIIy+jUpngEyaCDy8uzDTDfZkTEx1N 2VXW75tpqxUaqlGPVSDq3Fs4a8cxj4qvbwc7SplYler1biobVGPnu0HtHAq1wck1hVDtkWbQFOcm xrKqn6cCb0b7OshVGrk0tbEtbkKEP9ljAeOstEG44NgYBgTqc1sK1i/G13TCwlx2uOrO4LTsPP8A 2Ws1cru7H/pnPQ8Aht2wIEFh3Vdo53/2uK9E3L4xZAmqUvZh2Yaua2u6P5JELWPFIYKPG9y/2vpi avrj6aNXy2MF8ea3ATopYrcY6RCN9lBc3eRWj+O7XjRCY1X1XkL6Ndp8aijc8Ho0tXAe5UE2wFgx 9KqOPHfZpu55NlSYLNwfo+4BqHcQwH+CeSOWh9HYMX6lbuR0SVBm2W+3TF3AyHRXqyPU0FSq0tCv jjnmXS/ZYMQV6FpA8dTpVXlIrJU0u6mNUCNBGWLWWt8X0esCrHUF80c1I46Gy2QDPv4ku922Vuth 3DrVf+MZBM64V1A9RKu5+OEI1N+zZO53Fbqf+g+4orKtpI77Pk2NloDCfbP96rA1mQsyk1Kj3VbR uWEaqYAjm2vRMrXYC7ljtyd8v96aSSt7t4qkbTq3n+qA2+S3e0RSHqHctH0wf+y2oMAf7qv655h0 bP7GVAO17HLwIWFePoYq+OZDeWxRoK+p11OT/H7jVsForLAKdjfTAho50A5K2ePrYEa4zvUQ+Rqc ZblrxhHJaZqFobDWxbyVWJWIFRgq+FynccHeQh5Ry81xP8qrcs6gpi2bnKLZZ/iofasTKXUpbcsC +PCqPWWzBMQE2FXa7wv5b2LDT2BqLBK7GaYlNkrpFtmVY0IaeTUQEwDUDw+5xsNZzXjONfQy36Mb Z2JZmK8/JDB5v2++fbzErPWLclYFvQubiWXO0cmYLf8AymnuHF5mPS/Tpbiy5xkJjulqW1eKzfkh 9ge2VdLUpay0mtUbspUOqlmQA6UfWWOfFj2cpk+WyYuqz5xRXZmt3TlrYbcg78iFqaQq1oLWtPiA 0JYo0qAkDUawQe5/mebmeUMB6lQPV7MpY7nZldFSh7q0ltpuIjbIDzDxOqrcEhkqtRcx1qTyASwq 0+PtAZkMGhLEIlWU6CweF2HBqdb18YFtlHjaxCtq6AW3xted1p9YLIuUdO5ZazxLd/jBtq9jX21K 6o6Ja34tOrAMdvvfMcdON89/iVXZDu9V5Mss6gYCNkAR7twZJEfOM/K6i5Ux7w0N5Ri3lBXoeOXW isbZyROp20wa+78I/bIvXliHb5OwG8tGYvMI83Wx67ZUxqljUWQEUFajNNWewQ1PRuxem5/suxoq kqoLxK+XNaQsNnjW+xb9yD7e1+RktUfz3Mx1F1iYypXbTVUVIorfKdiTEOj3qWZGla2dzcb1CTBY Qa8kg15Ha0ZS669+oVG3atIzAlgk1XxiY/FKWWIcezxp7VM3OU3/AJk/LczCyD5aiti2XqD40tWy iwTs8rZZXEylsFb/ANlLdL+z4QtttJeqilawwUQc2m2nTZGCTExmCnGKwp0iglz5BDpgqVzAoAgv GOcagk5+Z5rTZA24bOY9/p+2n2EBM9wIzz8cgPXP1K8jmLke68vc88/5ARvkAZ+b6OdMO1svIxwJ 41rXIQeL5XKWvH8ZYrQYuKTK8bTIFWl26fH9NW6uMmv6G2uuN4nUOtZryFV67ga9pLMxPGlqOGIC K6ot5Zaacv6qE48gAuqFani2WWNWXzfSZDtMfJGPW+cMi/Kv5xrG+03qE/yqhhavjNfuJ9SbIYyw 1w7EDtPymnM5gGpZP/x3E8S8+3LsbtA5wN+UlAE/HiY0XEWZA3BXHxmeeG1Ycu7a5FdgvdVPBsb6 7bJ5ldFuXG+JsqiqxZK3MfAtoFhRU+yMrdLz6sq8lN+O1cXI6niS004aE/KrwvxPxTvZ8td/cW6i tN7jHU799bitzHPU65nlJgPvcMM9GeMThYT/ABrcxsA5l3qgU5wjX/03e28KwUbioZs7CHu9z0Ab JVZ42S3zx6KXF1NVYPJIBI5i6BXJNI/OcSq3yGuzQT5F9c+WY9IosenlyBYVX6X6lyjqlwBhjUxq fI6OcPBybC9h9Tg6or2Lgd/o96gsnkn+oE5Xr2rzqNP1C8CXEV0WWGvG1KsTo/GfHKtGX8dpmpbu lG4VmAEDgEgd2DcUe8tmS6mvVVijVGLeZ4HJ+VqNbwsSE0DxAmj+OhbxrWyqruo5luQ+OmLljLT8 gKLew2Pb5lZLO+A8/HGzqrFwauT8tlpTj/jflHKxfE1dHVePhOz5uFZjnGo/Mt+Q+BuxE8ZhSV17 lrcgqzxqmrrDTcJnwHxByj40EXFAlePs11cmnIVpdkEjtQp9ysaif2IMYVxaiJ+KvWSRRMhXtlTH ko1t9fkDOTVOPyqHxmETD1LhUp0pi/54UHSFRVpGZmgb1juUJuHkWzhq1XzZFu3B8gCg2XHZwa1d PlMLztXY9KiwOxs5iZ3isuyVvX47EoR/kM+vx2Vo7V4tJBwPVWD5rq/iaax8rV/aaKfx2A6+J+AO WRUqptZ+M1hShi+ZXZVK3dYuYStP9kFYWJVWF8bLPItQXKqMyPl1R7Mtsi2zK1GbknJIuqsTXyH+ ca/mNeTeKksXN+PoxLGrTXgHHA5JinRbgv4kdlYANXuIW1ip5L3r/saoiVAVDDU22YZ+uUn5Nd2Q tKUsC2X6GMpttelXq7ahgTaB8Z0fHVjS3IArGUKnpz67aXtquuTGGsD4nyXC0RLBWe6YCxGPl0UF shbhlY/UrFveNQ7C4XIXttmRmdBmLHxuFZX6/a7U16NicgzFcIEQZOMjmuI0f5VdZGR+ZcOq0OQ5 PRuhXpUScbQCuwKdsjOJWxJw7Fxwx7YrqZHqrDSNZ4cepjYmfgBmrXGUfgC00fDYxSz4ywXP8KrS 6lqT/wDXfZlUW6SjJay74u1lHx2RQBTbdm4WFxN+OW36bz7Y59u7PkWsjX7leb0FtN0rxVrVXrrq +R+QWxrLnMWx+Er6GlllPArpsdhg28r8ffMmqzGNVvMrzFR80U5z2/H0rPBjVVLVyHpZZxsCuzts dhFR0DXsZ/YZ4Lex5dPkBJSnmBHJA3Mhf7KK1rl6l8emxaycunKXK+I+mAxEGYlbJks8/LMW7qCt 9voS7K8lyWczsTkuy1qkBBa6pWgxbCPCJuVKZXjlj5UxTk/KW3hXKA+2c7gex1rpvzJjfHNXZZio 0ppSpWJMV1K5dikGrmUJ7bTnHroVsysHG39gqMBSwZG4FuLdrGxLWn4GSXsx7K2qxTYy/FbI+NCv iYAoynq4ewOkTHtvJZqb8Ymxrvinre/E1a2Yt9YyHossX8l8TFeZeW1T/n5Bs/5xKEtzPyFP1gtY sicVrZpFZxXS1lYHyHLPms06Ef4yhLfFTUTa/bptK9BFfY8RNlGDtasCqu3ZIuyVpqxLnyg21XM+ QXxrYzTsh6ctENVXJfHqaummrxLnCvH+PCtlWUVX32fHowTDpQHxoEsDGZuG9lmEfJatQQNkVVzM K6ryRYHQXSmvIoysura4+XYFxsywt8nlU4WbQA8X4uvIrau3FbHvcWXnzmzCpfGuw2BwtpSyPZPj /jPBU1TLLDw+Tk5NJy7fO/1uyUyxXabPf//EACcRAAICAQMEAgMAAwAAAAAAAAABAhEQICExAxIw QSJABBNRQmFx/9oACAEDAQE/AdVikSeVKhTsseVorVHyN4toTvUvBHFeOsQ0oWGKDe5YsxwpJ8Zo fgvF2tDIjYo2ObFhYjjpl0Wm/JF+soaFsQjbHKuCxizHnPsrDRXhWUjto9nGhPcssReF/TnRRWaK KO0W2UxzvYWaNmcH/MLFjmLiyy/puIo4oXJR1FTxH+DF9JcjZZzhc4nuKIlhfSvcsstimKW5a0b+ Z6WXpv6KHovSs0JHaSwl9DnXeWWR3epanhYlIvRWawyTwiy9Gx3DkWd53aHthFaaKxebxHxLFDP1 uj9bSvwSvFjKLFovUsejo9NSW4oI7PRPotsX4xLoNOiX4/bGx9Nok/WItikvaGo+mdn+zsZ2ijar DLWtYlwdGfo7qjZDqr/I/amR/ISJ9aMxzdUT6r4RWXlUt2OZ3i6kjuX8KifEuJ8T4/0+J8ct2I6X UTXayX48uT9b9jVYsRs8XhFnU5rCwxvVR6LELkiqkd7ihRUlbJQVnUVPEd1n/8QAKBEAAgIBBAIC AgIDAQAAAAAAAAECERADEiExBCATQSJRFDAFQmFA/9oACAECAQE/ATrLRWXWNokUbSSFlYa4FESz Q16P0rHOd9G4XPYiQsMWV/XRQ1isUbSsQZPoWFh4Q5UKI/Vxr1q81h4qmLhkhejFE4HCh+jxLHPp 3l5axZZeYxsm6Qo3ydkUSWGPH2V6vLOhNUX6PHZBVE7wh39ElxlssRfoiil6bUfHEekj4D4mPSZs kQ0/tksWbhWXeJOh9FCTbFGx95XvZZZfvQmOWGh40+jol/4nh8KxTRujl4i6HIbLwvavZevm63xw R8shakv2R8ma+yHncfkQ8mEy0OZGS6LOM36L0eUsViz/ACXMUJDQlWE6Z8sjbiyHOLp4X9UcWPHk avyTsk+KKI6bas09DizU0a5RtkXnSXAyUhf1pYeNaf8AqhtMdtlUR1JQVGh5PUTV1Yrg+VDeErdC RqPaizTdiy8WWWWIsbxr62zolJsUGLRFpI+BEtBxdoe77NhycmlD7xq88G1EMUWbzcifkqIvJbFr v/bg+Wqsi7WZOlZN7nbFEjFIa4OhWyrJaKkfxmUIXAxp2ULDNWdIcyGpXZqO+kQ1ILiaNkdSnEn4 u77NBOMPyw2aq/GhxrgUTbhRxCP2S4PyxpxGi8UPFmvpvdaJ6Tj3hyOxSSiaflSj2aOopq1j7NTU /RuLQmqHOhSTjaFLmiLRss2ogrY4tdG9m5Ilrbej+RN9CnM05bkISZ5U4qP/AE5Yv+jRtHx0eDGt O8dXI8bWuW1lXKjUVdFVyShf2adxOPoUbxYiWsodj8mujduds2X0LQk+xeN+2VGK7ENWa8Ehbf0b Yvk/jqRLSguGx+NBI8Jx27Y4lC4tGnpVLbPhlSasaIwbRLSpEf0Ric3RWNabj0W2KCNPTRHojJyn TPJm0qWPGk2qYka/DSNP8rsikkI1ILejU8iantRoSfzFY19OMlyjT01Buj44z7NSTi1FF2jTV85e P//EADsQAAICAQIEBAQFAQgCAgMAAAABAhEhEjEDIkFREDJhcRNCgZEgMFKhsSMEM0BicsHR4RSC JGOS8PH/2gAIAQEABj8C/wD2yspD7RKXDo5nTRlfsXqK8MNePl0y7ouPPEpqvG5mMG/jt+Hb8iv8 Cxr8FF0y7isdhOVvOBp8zPJv6i5cGxTefF34ZOaJyPBleNs2MLHh6GPyq/PX4LF4+x+qXYdR5tqO Vu16WSUpP/g5Xq9tkLl1HYaaKY0m0JfyV08WZyjCo8tr08dxRZg7Hp/ga/LbEfQZ6lmIUcj0tvej lb+ptpvDN0ipS5Sks+ok7Zg9V4dzGEPLteFMps9e6G/Pw/QTdiaOXKEymslf42vQZz/ZDqkP9VHM ra2OT/8Ah5i3leovfZFYckcw0cu56nqvDT18fUeV4XXMNGmO6Kvx28H/AItmlRoujUqujVXuxOTe kpZoxzenYhFSlvdjtfUa/k2XqbF9Dd/UtMtIe+DV4Mw2epTRKW8X+J/n39kKWvnvBbL+yF3/ABvw WRd31FG8yRWnFdy4K0x7KPZnxNWeivwjmk92biqOlGCqwWYZu/oYZhX7C6Cfcv5S7Ka8NfDX51/g t4QuHGV9W+yHI4GN3uRi82/sfEey2/IfhNzklFdjU5LTsqKp0JNZsv7FSXmHKXLGPoRmnqS6i1Qb knhM2wh6Nn1JXFaWPoPTkWP+jdK/Db7CrbwyXVF9PFuPijJj8tt9DzUjiyW8kRS6kXqxDudpborb 8r4cNS4b5q2OVbMSWX3Nra7mWJ62vYp5j3KexKEbVbvuSm7LbVoy78L016nlx/JbTsiv5KLR6DRR TRfTw2PTwvsZ8cfjSRGKKWwhKTV+otBFzlzx2Rqxr9Oxq2s0vr+TF8SahHpqfQ1RT0/L7Eu7JYTl 6Fy1WxKSvI/Qfwpx1tnM+Y0eWjVhtmPON3dG3KLTq3KllozhnN9y/DzX4WY2PQZVZMleGDP5Cvzy 3LH0Hq3E06fsaS7G4eY08RtMjP54t4FLp+C14PwUmllHVx9DZx6i4HDVf5maZ7rsS31djk67ksLO 8h1jIsYfceKodJ5HcUkaado6pF5sy9ypdBdxLw3+5g7GfCyzUX+Tb8sMm7sePuYKRlxM7DcJYfps ZySfDjFSgtR/ZuOtuJl13K/IqVuXQj0l0ic7x1s4MYTbzfYS6suOnUao1fpgfDcarcy0lRb6Dr2E iyXRH/JvkemOexzQsdQZszZ/g1Ne1FtV6mldRpjixof46L+aYzzYHlHqZWDc1XyroYI/2duMNTzI n/ZuN/dN8voyTjv+RzNxm3WBWvTcSq2yPEk+a+xWm/Ulq06ryYxRVtzvqVIUIq7GpL6EY51y2yaW sFXHBzO32TGtKiu7OTUy1RujKi0Wkjmh+x5Y0f8AZhuiKVOJnh+xlM9zBf4/iy2RH9KKjZd0j0XU 5dyuLd+hkUIR1exS4Zt9RZ26n9VXCe0uguLFUn4X+FS30iq/QuT2MdXdyNSo5O+RvVsqpbClbTe9 HdMr9zauwnJLUv2KTsxgpRV+5zq2/Ulp8padiykZ4n02N39GVyv3MSSZzfsLNewmpYfRnkHUs+5z ZXtZ/dx+yKlwr+h5M9itCP8AiR/T4q9pHk+wviYNMfKh6sxLWfYjv7GM+F7SNM6MVkTki/le9GmK /lkv7PPMXu+wowVRX49lexCqi1skNduw+JCWeiY4RdYu+guZL3IbOKduhYNTSd7G32HuapUvqN4R ohfuZu/QxUTLz3HqlVl4+xqTz2Ho6lT136FRspRE2rQtLdP1PmMR+pm/bY7j3S9WbX2Kiq1M83M/ U7eH94U5WLULBvjsNRuhlM1XaRjBzOz2yzMhVt4Y/Fs9d4E+I7f+UVW5/MjfFYS6InxXJL5V0Jcr 9K7lKbaoSm4pLNEKlTiU8jWrBmnRLsa/XuZdRfyp5HFXoLW3qPUkr6mM/Q/zew7Vf7mpL9zGENNi rY3t+4odfUeMehlyyOv+y0fI0Xqz2o5uVLuN2s7Hw9Tx2NN4a6F1TXc633K7F7diL2fUVeUzuJJY EX2whZ65G+5H8ewuLqS/Un0E5PLzhDam05vF9iTktPsS/qL4d5tH9GUoRhJLV0r2IpLHsX8HU3gc nw9Pqx/sbuhad32RmUY+nUVXLI3px6C0rPVEtvqPms5dI8vI45ZpuS9CK1pmFn/Kf5znXhnU79BI xoX7Hotzfb6G9iVqmUv2MYX8irYUVk2to5Koinukaq2XUy/p2ORaoehWUbldh/6RkfyOLPFtUNRk 3oXtRHia1joRhKMtP7E1LHGq0+hCXWfm9zT0Q7WCPDjlfwPsi8IVYT60Vpbk+rWTS3t0op7voJUZ y2bUV1OqRq0rfdCp/QrV+5Tf7lKWPc9PQ1aVnqW19xaluLr60Yol3sliu/UTrMSMn5X+xBrESK6I Tw4yGryZ64bQ3s11oalX1L4TyVbj0dGvEn1I/wAeD9yjP49z+TjTbioyl9Th6/I2O4rRF22ceWqe iCVy6ywKUX5s5eRyW76D2uj0rZEo3ix5yXJ0l3ZPTJvsNaq9inX1IehJ/wAGuKHeTGa6Gf5OTJbT scqo1NswykrXUVEHeew1m0ZJbenU1abcerK4nbZM01dCzWeg1DV9RXK7Q5Rlp+pov1wTxh5NVfQu +SX8kZdaKH7fiwvDP4Kpyj6Etcf6a2sk/hy+AttRO4qMvlUu5xdeE+hojL6kqaKluSn07GC1HdGn YxK/fwvdPseWiNbkk6a/gerytktMugsXRtKxWx6qobbVdi7yYFzZ9TMYyXoU+pZq2IpT8MLfuXLL s8tX1JXHHsO9mahNdMii6scZXRHRNaLyKth/lYNjRUdS29xp9ex/VepEIxmrXRdSMP1Y3MVfoasr uTtWkug0+pUfnJ1lrqZarucxhYZpsvob1LuPW5f8l7rualK0zDdiW0hN5QkXVm/KYbRG37F7sX/A sPPYlpZXSOwmmWQyY7D5nfU327EfQ0vbqadpdGjh/EypP/bwiyVPH4sGfDBnwbSptUWsl2PucKOr Ec5Y1q1PuU3JpfKdVTPi302IWicfqReMIdfUxI+JdmXuONilHqaZdTTd4NNCs6/Rmw28dDQuxlFf ujGVvbLatstSw/UfMsmxF7CqskY43I0txOq9hx/3FNvH8lUNbSXfqeiFKzU+hgv8zDaS8GbDp16o wsFS74IxfkRGMMYK+WQp3RojsZ3PKalmLFJJZ3ITojuehgttNldWRlHYztZqbdsd+ahryvuN70M5 ZGlNtFPpsRS7CQl+nqRx+5ev1yKObe50E1hD6NDjL7ip6kKF5/N5rd7+hH4elwLwJ9PQ2wu5yuit Xv6nokJV7jUcJoUhc3lFP6mB2sDxynwnuaGexWnHcj3KXQavCKWXI2FkrYu8LudL6GlujQ21D+R3 iK2G35vlG27HRo69RWkuqXUcWty7VIcrwOn16n9T9jzmp7Ibv8qvGv2NdPT0RzGGU/BKxMbUvY1b 2xd3kSQl92exUvv2NUXqNUBYWoXErPp0OYeTpzIyi47lOy857D04XWvDq2LGSKsfVmr6iVDxsYfL 6Ep1ZFuLEoxaHJ5roitDtFyaRfTqKPD8v8mfzaSv3NKTMowjp4avoUxKGNVt+iKjskzGF4ZnzFJ/ cruV0Nccw6imvMaZPL6HK+VdRN+Yvp0M79DO+42vDLwM3wh1u+pp+4/Q1Vv3Jc25jp1OZCqlE3z2 JKFfUVzp7DlYtP1NEX7+vhf4d/HDN/wXaRiKvuzcfN4xjtIxIk7xqr6GlHPuYNy7pDxdjkpP6GiU U7/VufEh5X0FOGz3FeKI6ViYox+a7PXYd7iMPw2KfXoQRqbQs75L2jEaWIvYpKo9W+pm3LsVkek1 XMitL1WJLYv5mXZllfh38d/C/FVQ3+BX8vMWf/Y5Vj2EmOtje34IpFqx6mZs0PMZdB1mP8C/T37E a6ZIM1dW7JS7Hsd0jODvFGNypPBOXypGnqV8kROHLL0EpNV0OXHv4vkcqo1cPqa+LvWB5w/wb/kZ NPhuWyorx2Naj5v4MXY9aueq7IcSb72SMRPKJywa2UrFK2XFY9RxeopbPwl23FGQ2eljfdFilRjD NL3KiVV0X1JPFDerJ0MxWDBHSluaWsyWxPiT8u9GML89ZN/DqbGxDhJbsa2SWw5yj6kV1vJxILEq 2LNvGI0tkLbHqc0oJ+1mKn3K0V3OzHAh7DyX1KvY03RVi5Vb6keL+6P1aiV4scZRujVfKzFWVWw+ XIscp8SvKal3wRj8z3Q/8Hnw/wDIlvLETXsjmuqEou9PM39Scvlfhg3yJ2KEdirRhovNIqTwVoOW PSi3KhZsVKh6ZUmc079jDeBK+vUU6WnqJXyvoyKUE4laKkJcTGocXgu9smTYohwoO31Izl5dxpPH 5WPythQ2XVkYw8sMI52Wt5bktPzFUeUeNKRhm56j7I5nZFvy3Zb+5SWUXVszSNt/0lZrsyUYzqvQ tzdknhSXYablqK147MWItfpMtxi/lNcFuJStSXcbZuXsVsS4k/KlZqbtaupOdcyHarxz+O/x2uHP 7GDJ6En1Zy7G2Fn3Hq6bHKsl9fBt3kpRLbJCvI+wmsISlJaY9iDV6JIVWd/c7X2NMnsK6f1K0/uK 8WefPqX8K2a9L03t2Glv2ZTeDVG36GkzI7Yzjc7Gn9Quxw4S3YpKOBGCuhdYNFGuNyj+CjCM/g/8 nixXwlsn1Nyo/wDZsXLCKXUy6V/sOTz0GjA4dfQqs9y916l5HSV0apeYitmaY1j1KfEwyMdVt7j4 b8yzFnN5uyFKZpTbfoXPftZhrHYvVKu1HLa6il8RV2e4o6uIjmm3ZoU6l0xuSSjbrmiLV5HtIvaX 8jklgpWLORL5UZjhid+VUOKRzmBHMj4i3NDRfg5RQlI2K+VGyZyi4v8AaOXg9v1EeHwsRjsl4c2w lwpv/wBsjjxF9YGrh8+joifxE033F2lsJS3ZbselVY5Soi3LDyLQsI+I/sJJLbc1dGKSI8ts4PGW zwxMb4cNXoR+JwKUu44J4ln6HJddluOSVelkazRFxx/qOaOH9jNjVSxszTKUc4WrcXNzLyz3oXxV bWJUt/UVS5O3Yl7s5XRPiP5clksbD0upIquYtlxEUUpC1It4RkqIm+haeRx4lDxg+JOPKhw20kX3 NjtZu3L0JQe7V2aISwsuitUq9zV8Sl6pEWuJCf8A60LVCL/0yNMY8Thz+5niW/XAupty+pTa+554 KUfLncrr0PU2J8Pr0GpdC4bkOGpW07Z8TsqVFuMKOXdd+pdfbofDlNemT0j6n6n0KpRroskIxfMX Vl1UXujjT6qPfclLV18IwW8vBvZ0RknZqrDNL3N+QuPm9DzvSJ6sijFWafLBFbij0OTLOvsKKTs0 8Tiapdhp7FwjRvnwp0crNFYSQmo7sfElg1WvYqGKN6NUng18Tl4f8+h6fpXQ4TUVzrUOuHZb4bpI xDT66hXUk+ov6f2ZmE/sKXC4r4U/msX/AM7XHqNReqfe9ilONf6i04f/AJDd8/fUbRrrk5Vfejli 1IUXWrsX8KW4paJJ+xGVJLtKkf058NO/KngvCuL1IxX0H1ODdZE12J9aHLhvl7DWpeq7D48J7HNL A+ai9Rkui0h3QopHsWnfucsUr6kW9yrOhLNJPwrwwKnldz4UeUTbuXc292aUiHC1Y9exp4cHpjtZ qnPPai5R+pUFgwvqzP8AJTa0/uehliXEklBCcY8Kv9JPV/Z+FpS80RrBTjk6FT4MaIy4fBfM+44z 4fHhNFLiTS9zTL+0cR+xnicTP0Pmarqyvh8P7GvWlT2JIVRb9CL4i0RvF7mm8Dix8ZRS711HxeFy cWO66SJcHiXw+LWV0KrAmy4vlNNEILEbtnM8DlG8kZdTRu2JbmxNz36Epz91Zqm8vYVrzeGhSzRS yysdxuUrs+m428RRgUZpKT3YklaXmb3Zj2wOV4XoPiZXC6FdPQrTOzzu98dCVbLuLhztwb37CNRc YRi/RDlLrEk6ytjS0tW5qi3w296F8a5kVCPIupnY6McuG/V9KJcOWUvuZOvuZrT6Cr5e4qx7D4fE 4mvhSzDuibXmhHWv9xOP7n9TMGLhz1qM86lklOOmcZYbroN8KWlxbTTOaCr0ZifJ2LSUfUljmolz 3RZua5Z4khUUpOzpoOC9uElmJnHDWEfDlnsz+8kf/8QAJxABAAICAgIBBAIDAQAAAAAAAQARITFB UWFxgRCRobHB8NHh8SD/2gAIAQEAAT8hrnCXiLbrBP8AEvFvm7lEFd2xSyjupStRDwm6sDdJUvV5 eiCcViJKogiyXct1VeYwUr448r6Ny3BeY4u4OM3mjRv4TcLDXKBdQyaDFdXKeItsg3qJxDTNSo/U t5Ug6l9FsbjLfpCUGGmCqFBuE0pWR5gYagnPH6NWJMb6SxxKC4l7Nsu8rrMQajKspYAmmXMJaPkt yP6hheSytoFucL0S6rAGcSpgco2Ofkh2zXUyJJE0ddw2NO5ZAb5hO7Ok50VLgrBOZHJJrZMoTEPL RKnzKS+ENgeExahyVM79AwxKZmTmXNkfokwAINMRR19FIolf0NWZTKWSWQLxge5dP7THJxLFpA76 uMKoY0MEd75BmDE250MYL6MUQhLPJjA0t2Yk5raLDyJwmYAJdcVKeYIwkMApXEIQIS7qG6NdyzIZ jiASJlzdJK75cLjSGkIgozlq8sAvkQ8lQvf0DhCpVmTUYX0plf01yV9ejWVIQP8A4RVNSwY2ZQD6 JLolOJfgDMWR9+gS6ryriWZzdXjiVgqPML1eaezKbptqMyycsoMHiK0m97lsgwOcDpgYG1yQdcvE x0qHYJY1hOyJTWRxLCHqipy7hSWX4Y7BMX/cJZDzcIDFOZRBcAis3K1Y5lhyBuLaqZRJtjMWKBD6 DpX/AIzGBLZNSX/8SSS0Y81v6LQmRPzZiUfMoGwTnYwkBDuFdjl1KKnQPEpIs1yVCA4+efEe1wYX RAuemAzBgueMUhEcF5ebmGu9IZJucHLtmnK52YhTMWYxL3fxB2KFpANYxcy9GNeYGbiLOxNoVXJM Y/IhUVeZ3rRcLSbiw01AjGOBM0/RIIEZUwLPpFTVFjMnMSY5US8H0WGOBavk6gqTDBRGc36mK9zV 8T5lDJSOyVoZOpRQs2lMKHI0S5EAcBGkKAqzRKoF3ja0qDJlH4gMEXIXUbQwVtVKUUjy3Go+wj1s exUIuw6biMpRy5cXN+HmFaGDuIYuu5WgI89S6EF3DQjza3Bpeoy9xTKhIGCkArmGTY0ZUEDESCGy pbmYx86lTLE+lCllkZfuR9/wDR6JpVHEc/O9x0l7PuG4wjCMyV6h/OCeGNXqZVhxi5Ui3UzErZVj NYGM8TL/AGl+ao53Bzgb2RfZereURbA3d7hugGdywKkpu3UpOIuzmWVqbzMwTTkmIOM1hmI5MkAv Te1gljsbvmC3nQNjWslR09cJcCluI7wag1r1vuC1V+JS+aSonRl1bj6auUfoIH0FH6AkARDI0xCk bxFm2aiB6BHRg4OiOY5T+X8RmFKVGGqaCh4lUmCWY+ikOoVsdS5vuC5ZXuXsmueTq5drF0tR26jV 5ZaBWiy2G+kLIWsXuPOqUbNQIGQU4qZuA5Mw1DI51B+V0Jwx2ZY33K1dCKgWGy6lRFqYD4BmXlrj uMmVbgryZk5JiXffglGDBxAFoHmFiFpqb9NTFVAcyneHZDKYYZwxA5lkbS3RZFOSv/BdyiUj6wrK 6O5lC7MDeS9Q6gJe96gzmcpXaNmVQ+PxFRs4HkjGQF/Mz1wTeYqm0KjKey+rmZu5jqNtk6MvUoig bi+dymSu1xMgHYdPiaWVrxxNXzi24ly3E0Sxq6dS3gBRiLWSW8F5hAB2H8Rs2B3iolNX5vUArAcO Z5NGMwoB8C5jUqDIFQ8zRSTOO0dTYBpmIy8XL3G1LtxC4LnyE8galx3NBuKCDNjBchGID6q6laLi wgcrLtL6/ctKJKi7IOhnjTUtBnW4FBTbs7lvnGPDpCYx55na6XHFRxKdRLOZgrxMy+IbI3OYhICj k8IwJrSSj4RIaTnUIT8qgKPsTqs0prHSVpwNuTPUwv3m2CyBK3OJuAN9RymNNuSpRql6r1GuiFKT 8qlOBpMarWivUFBAmKStQaZVvhiicHUBG6a9xr7BlIyx6jSyP8YWULDRHDgQiAs3ctTxE9pIDSuW dMRIVFHY9ypqJqG2CrjPgdTJoYMYzAI2myXaV+nqG0fjiXVJsM3LycMYidVj0wYo23ZIo22oH0VA 5lTJEqeIgniKtmbAaxYTHBs1jhxqXigmYc13MYz7jLMB1MGMJZyIuHCmx4ljcwDUviK6P4gTWlh5 S2Up/uIbsYKVuXLaQ9dy1GszRHeK5npqCe5dYuGi/kcEHYcPcAGQOYdY3vuLAamgM4SBWRrqNGL+ EwFrHHqJS9zBJBDgxiuBKwyo2jXUZUyoCpKdTENRNdubcbB8iJysbhhwiiQutXCXobWatdN8QQQ2 GBGWBjodvqA0BSrK/pCnyqjSKY4VEdkt3HglqP0NCo3MvqSYA2yzUrssdxE7RkuYWbJfTDL0XkLi 5RXObCZRWVhRiAworhsmJLtrecSwQdP5imopXKodURrPMyJ+OGEwbc0GR4IlGw17TaYM0OGGunam KnYXrifpmpnOJ7i0bnkqWS4TPqIyNSnBV6im8VBm6G01HHgwofNSwGpWLTvoFxniYeqWzqLLlwr2 NsxF4NFVMx8FSj0fMQlGxzFxoG3mAaz3XmUARJYTF6l0QRTs6g7RsQFOy75l2GKLlmokbnwpccXc QDSBymTDGCWxBa7iXVSrdUZwqcVsZpTHbdgpwVglq3TEqLSSs8o1R92YAnA5qLbJSbW/EqyUtaaj mW3VpyxLI+V8zW2zkS+RDCXCPlIYl+o63HsXVzoq2TXdGcxy0ajC0jmq/UDKxnDDXeqzMk8scTZr TkMWoFOyDOiQtaapEhuXiNsuZcxRY8N2YRHbfuWWTzPBCl6gmmxzDNdZoJVB4FGJbK4xlloaO2vt Oru7gwPelStaTMbs1fZep07jd5gGNJGsTAYSDEzDJDc3glnA/ZiDbYeN31Lil0ptHMOzt0xlLC0t kXhh6r5kV3Li1MF/8gUb4lsBEtdQzX5HcQSmk7TaAcrLBFDFpdyo87dfiKhvK/xM3K5My4Snf9uD xS4u24Lh9iKk/awzIHpTBL8+v8wDHbYxAHMGNqggzqwMEMorN9w+o8qEriT0AQIZOGq4m3zyKpXq 25LFVYNNzGLPuQ73+gqGOt5VxuoDdzGR4PML4juEyU8QcMuVEDuG8eJtLzrwTErHmZbDhqXsbKFl TnEpg4MsKPc1IHd/n1MARpA+zzCmDoCNJapdvcN3G3qWj3rooGql2Hnd5ZVplzVXFELnRl2SBYV5 EVK85vh6lEvGJrUejKIpQeUqn3YGZdsFfHBCsbNXDRZ7/wCCZ4kYKSu3S2BJUMbtiO7maNRxHAXX Mbcu98vzNvC+RMCZHeblxcHwIbBdVhhbTXJcK4rebg+26F0X5XC1qzkTQ7HbSJUppw1ZHzoUlNa8 7ZisA6GYwLMHghzt/cNJfd1mMtr4WpsZ+TX4guWsXFPU4vqZzVppNTOGauA2hf7/ADMPGurnYBrd wp6ZUNJ4YTV0Yl/Yjp/GcyrWFp6Sd5UpK5j5zdly/RYaY0tjEKNtBXWOYxl9UCFOg8yraFPhmv73 GTKUhgEsKmk5ormQGapjIA2t53CVdTHcAVL8pqNefC6JYGmVahULwtdQApV0LWYat+zlpRTJYc/i UYfkhdMPjjbGvOkXDA5oDEoFXnqKWrb1jiOxuzLuccXN0/MeDMTMUUqbqkBA46vDA9y/3Bos4f2p iQR2V+0ATZe1hYvIsblGLs2QvoLIKkPIE3gmPC2IT+weZQnAcSZaqc4Rc2yZjbjli5fVbdP3LtkN QLYorMqA63LcbhjnodsLTyG67rL/AHxEMuX4ly5Y3+5Q4+g59RSwJWXBM9pmUNUsxdZv/o5gkAQa 5y7Gu/COnCWUz/Mo8IBhfzZqEFqFdIIdDgh15iokOvddTdFmKMyLbbxBuGT1HuF+R+eYA9hgnRye LN8dQUIFue6cxHq1UPOt3aVCgsY+4norxREqVmezE54l394JauwiEMLtnwxA281LnCdXVy4+4UML nxq4YhiaqxSqZT8TEiB7g+RINE5tSnS48YS/om/JZjG3lt0DdbIzVAKwVEHKjfqZc7138fiOo/Ih HAZp/WJxxKU7eGOlF61+ILXZwMUQ4NHvlnlB+3+pYI4I36iCgThQSxnMHcMttLB5+gtWqL5qUNOM O3n7zTTpd+JeQWtaqHwJX3Ix6CDBMC+/4SyArPibV1Pm4sA8nBAHTroxC2WfeLYKadHY+iPnFllv cornYWBLGh4n+ZpqGgzUUKklDCIP5RNrj8Q3MA2tSzVLsTg1ccCaWnYfwhlpmucxqyaV0gta9UIs l2f6iVNGjVlxZVjGo1JEU0qXFbat7LlCQdQMOdodNmE1MqniCo7W8RZPiquagFFd99z0JBzBKyqA NkFYcgN4mMQNeXUS8Lx4dS+wXDFNAT/IgLX855gCze2NEzMXW/0gwAzFjoQNwmCtjSDVTGrDmJ4x sixK4fl3EDFF7OI6sVgc8bld8SG7xqBRBGRsyK8RONI3t+YbV9yiZD/AmU8MJXsU8nMCdsDFEoge AP2mQz3QGWgBWbbjzDPHpAoYHTcaQpMr2lZzU8yucTETSlrNTqC9aS5dK4IYrLwurCDICeJrPOHq JJxcrxFRo6CayU8pkirVD+4URnobhqa8nKEksNOEfUVKZsYEoADoVKKmugy+IrIq/KJcnVValzhd mNu5ZFO1Jh2kAPUFhV7O44NBOHNRVlPNwwzVWykYusbKR7iJJ2wEqVxAFc0uEu4c0Vh+sSpafTM5 rFjYrf6j59UxW5z+LguEL0NOJQcc56XuCIlG7hRD2R1zM8atmuiWdaCiMoqbxipeEODEGbO9HiK1 l7ud1y8blGH4CoPNDebhBX2uKmvNCh8IGMOxxG0VGV4uci7WupWlUSzz4i2FbsVx/EW+V6pu4Zsj pEec2xziKjItuVYB5Ix6iGyWXtI8jRPP6h7F8lJMC2/TOS1dYKIkUXWyotqi+CAUgMk2sU1h4MrE 6gaO3oiUeq2sRiqt4IMIcjLq5WhrJV8NxYYpjmHZWESz5LWYy5ueE7kvG/pJalrB4SxKnXLR9EIo vevylSQc+kYlKNDo+IHBGU4Tl4HZDpgmTb1ByKnJxHCSAGvzOec2BnIMcd/iV4YZR1KRa4x5S4tq MUOWUirIpFrk85hwtOCXTeEWkPdQLoF+cMPQcqyA0f1lY2yhtxEbatu5VBi6IItpesfmX/HlRxKU Q1gczHaa+yAe1nZVfaZEaKOEAY/k/cbge0Mw3S+ZADKoUO408fgl4OVdzG2csRq9zKpgljSkMao0 bl7TbIlxYH8CZBmFX/XUTMFuSY1VKFZbcxNzGss5luUUSKXao0Vm0GLiszbqU32C85lLZ8qgs8YT qzyrqAAI2UD1yzSKpgwP3ATB5LcuKLMO0b9XB4A/mFTjvL3qNRJ0DqWoYOWamYoNaHXiOli9QHnO FTjDsA+8coPYqUHExm/mMsUZXf4qWOUduKmnkW/7UVhiXnREBPG1yyztGtpZ0LyOYoIp8yqNj/TE CMPKX1/qWIE4p3AMut/4mW5ETXTruFo+ENEDl8S68PsmDbajNQwrt2xL4Dn+sw8C7qAxEHa+P+wN bkogouVuzslFWd6l7gRzBXtDkYCsm7EwzFWUNZxsSyU4WDbUWGdJu1qJLAOOYeZzNeOTmPgXpblC fyLxNk+Sahr0cUprg+IyMSrejg+/7hq2Ab8RDa0G/wBRJ+8uAxlNyA6j8kFlVPGm4S6gK7HUX+xX D7rROp2m9XLj5Dl7VZruYGjmo3Z0YuNYLsczKVdtyxBR2vMxzFG2c+53KFcpu9HcuHT1tjjwPJ7/ AHLYJQy4is1spjvfoLt8TmBnyqU6UhkcP71MgfyUZmDivjqWBGmh1CqKAcx5HzT3OsHHiBB55rib EDGEGsqdEfTBcTSyUsyqWZTtMwCh/JUEhcl53Atu91M4Xwi8NjNjlIqFI7j7LRowCaKsN8YiSDo9 qZnoE3fDHyMuiVZpqEyOqbrAdHmZPPBgBE+GyCX1nuPqXg7jWLMvSfMsfVpErMbYIm1yDK6jEq35 hiAArxDg99RQW7ltIp5vUy+2INIWRwaECr5WcQGdoQwrb7assN2VtIK0Bslo7nMdjPC3AAoNApET CZeCdeAtf3MLAA6uDC1gStV4uGpQ04h5lb3uYiJcLZOCwUMrRqYwWWoMRVcEyqgzpfNS2FSUOnBL 9DEs4hSpvgdTvj0RlWUlajd0/qXHncQ+LcwjTFoe2oYt0H/H4/MBwv8AAmO48ymG7PZDKReuZdis WjUKVW7rqXM69E4YM12Sge3rHasV94hBpbjuXVgbK4h3gnFzMC0sVOt01F3KdmSPrGy2+5iNpnbx PPY7jhVw3G6jgf7Upza2W6ruI4KyX8FQmZpePMQNlUNpiflH3JOWJQZ1WobRCEpDgLMVHd0zAsHE EjBhIHHD1AVgWMyMQ6gBmIzmA8yoI1XUpWtwNgQbLqeOaWNwAXmgOJfiznO4UrDIT5MAUsruXOCB T3AyZCg+IaqALNmKvtMRHYCr8Sxa2vLMnk1rRFvgvbLMi1+E/YDMTr9rqUMg1RudKU2/MRHM/CYG nKq4iMd/RCkWknL8mokoVpcEtmKdpDs8QmcN5xNug5e5ULhjHXFbVlYCkCmXzGGiopaUFvVQUBZw G2GrWrCv5g6jDRv3FxsbtklmLnOBDYEEHMFN7zK8tXhNQkgBdZiLPowNKhsSr3EBFMJh1gcpMVqU NMRcnCfSvBlXaXMjWF0RO4xNQV3NR9NrqiCU9hzbKsmVyeoiaDCcAm8FBX2qY9LGS4UuAZjHa9DL l+29xBp7eIZkGi1kpbdhNJhWt/SEpvpYYIbuTuNu8CThtYH1iaNRMmUJW9eYwuLiHoW6l63WM2xx Usm1n/bp8zRkDVbeZfyTbqJBTnJRP3dSyvEPjuBs3w7YybewMzRKXfuJtiI6qqxUVzuGA7AUhEUt M4UxEIWC0LmzQhK7xFdyzB2Stq4LTlMCSOEXE95TW1e8xYHmBd5ohXBFChxDVZDb4gXOwuu2BNN0 BtAnlKD8b/RL10GiUhYCbQI/fuLFlrBu1nn+Jk0rufGhnEyIziNKP50voN/kPMwHSAHUJ3Q2+NRQ wsA+ZnnhiHbMmeGccwA5BqKNGzrqNnvYHuWbVd4cUPOYL/IlO0DEYCvq7liQOxXcPkBgk5SPSJeR 6ZYKK2r3FbQmuufiCCF1I9TPAwlUtctJykdywE5RVyy7zM+Ye0FpmRQpTMZlMiwygGyvpWy4nFOt +Ym6eIDQXUpugY+9Zt9IX3Gr9bgIUEemIOCgD+UzCoOKleS4gwIV+hM8qrZE1i/OohCtbG4C+5FM MRL6KiJbzdTJMXxW5YnABEoDgHziI3Jf6/tQa5oCaSqH5lxdZv1DeRCIxmU/yCUCWzR4NTEihuYO A1fMagqaCCy755f3CBsYevMuFs1mO0FiJs7fKaq7RcMd6J8XAJX3OCy2huJMM7rjpYIrUc1FOJS8 ROcSjcoBgNEL7VlVhRLhWVcrnb7no5nrK/wIApzpWZSVCr+0Qi2h5NP8RbRb9A15K/uEC8SmF4Iq WAtYH3jIsFjwe5/Ayr+YjmDhf4hMuIuiO29VcygZ/hMNrtmppS4KzFXj3L2YdXzErFjWcTceVSVe AGuqE5V6JcF0TElW5VVMmeI9AdgjSnIpBzNe7P2iWHKrOJc97fe4IubR4DEaaC0/UfdZNwQ3GWCX KAlGZjAmDMDZCSrlr8Q20jjc8md7X1Df3EFRgwlM1j1KopZf4gC1GV/3+3GMsrvMZAOj6CWgmtOk M/KljBBUEuiBu9sWSheoBvy/BKvD8dEKrAQDzKTmgZ6FuCdieYJs5X4hV5FizRK4Ocpt5faHLTht cRlviTHm1d0Fn7VS0NXIXHe31YqZ6ZiSBeCo9jFOe56hm4ayOcTPUZfc81ZcrvGpNwlG36IiAItz lyX7ZkgsIZymeIocZmCWE8UBgFRVagddnQQTugIEFqyY4qWCrAeSn+Y6V3X8/wCYkOw75mWOnBLY bDc0PllRtzCPylkLsu+5l7nlwSqjkjzU773cUEgXLmwz4g5pnxE27VwqPbHiBjSNFo11tROYFRkL 5RiJtT1G2O3BY+IIrmbRfdGFqN8fTfwnSWkhwRZFsc9zVaLmUo2+9xGu1AIz3JQRzVQPN9RSYLgl psuENXaWJUzkxD6iwJqkuZQKuZRNQYrgpISxvCNMdwcc2LmxHmgvqaGoLt5xEvgYQRehHzuCC7mw FDW2JtPia+IuFUlxZjGtwB7ZcRdMq4mclcK2sVRYlC+YddZEfb9tHCjbywcAE50hsL6EsoAchY4a nMYtYvmagF9OPcpojgasulm0DTD140g9GLcumCsmn3HeaPhLQAWMSrrtrOoqszaDSMfY6lQeW+5Z LBu/MfMcmInFWEMzNMpnLnSObWHEq4TLkHJA9ie49R6wRhQuZcjUUg2Vwugvmu/UABwjluOkr7If 8iUgU/mVVQUMv98y73OXaIE4Qvp0T7JVzgqW6uXua5vabKedtTsDhgRUyMXAc0sXxBcC8e5RmByd EeVE3naUwDALxzLg2XlE1um1xOXNnBr3KGNfzPEZXCkiUrZqK8Qe5jilfTKo5QbYzcvaw2BtMuwc I3iWEGpdlxL5upCF4ez5ItUVbsevcGKI5riNIXEL4wQo8NDKXL6ZvKFPcJdVQzLMocxk5M13RDbu FcFzAib1DxiYcq5x+4JgUAIUsA0XEDEVBwbARSBiOWlk5/6SoIUFWFyQw7DuZszpSZ4Gq3H2cxg0 lmw+NwjxAA1f/IcnJg/v9wgryIS5A/zFPfrJZkO8sdGMQu8yyVCr8yraVjLZKJjClyTBtVhKUrNj DoHfc1g4H8My3Ut9e2Jia2Tg+yIyKaBae0tsPuKOCF0sv1AGSEqXqOl0274+GWdjltcPU1Fmt1KR OlhiUYabCGCrgJoT/jD16XWSv125IsphxEQv0KmcunyjC9m4ADWllz1MMQK0cZ36cJksgy1VMpnx CLMytZ6I0xDKK3cEqoppwjGBdXDV24Qq0PruWR6vcu4AszwPtGguHcNWN0uPaN6t18QHTrxKPGeW IwxzA+09Wv4iyjpX8pYznIVfuWYBsuv4mDHmYfeUAFcpOt/BGqj+M2/kpBcTv5RDnEU6rwXLxKs3 0JHMLkVDbup3iGSWgZrxKppZeBGhwYs2EtN6vCkuVGN2C0tDqb+TUbK0jRdH1OnkWzmEAvJuswKk GsfeZDnKzr79TITVM0VhO4QtxPsXUIAW2rVQXlvqM2DvMM1sIGW5E64da3NBs0uEQiJAiYV25TBr amc1OZjI5gAYGYVHMdOHywko1YgpPek4eZkjvBS0aIPQeMvwDi+ZQQL1gECVHrAeI+CwBZCGuahl GYPtK2Vj4lVoUVyhOrU5mQKTWYCk/wBpZbDN5X0hc2Jk8Uc2BY0TEp5DdQ3qKqKDNrqzOkOIzcv0 Xof5l6GdZH4jUnxNPmpRbN5CvzKwUcYYajbWcpVMN3dG49yLGPtMxa9NH8xes/TT7x3ROUb8wwyy tc/4nCdOlnqWVE2G3uVDArN7PiVSWa6L9TAuQGPicG5thQqFW2MvRSsEFYW5RFouMPVyxYM+LzMj TXIojXeZF91NQFA44kJ7iZkwx+SMo6YtKqdw+PMx7oBxCr4iEXvxnJrgCO8+Zacg0Rdcot+k8R+J YLywOY3zA0CNcAZQMVZTTPI9U5dLzySxgY3UYFqfARHg54Fd+5VNThaEXKqLCRZplOGXijE1cvil Mft24cIyKpeRYniTmoLyTpBFFjJczT+yo3oe3M8Ae1xKUl6rV17mSDi0Ck6vN/GpbFG7wR4wgWFi oHSwikp6Wlo9hSyGjS15U/MAEBYrquo9ZXVMfsHAgkNosviHcmHEoiTXsj5zirD3EtvAfkgiBDzv NzhQah2Q9QVqR3AO2OJTY7gmmUwGVnNluAGx89QHahqGhS5YK0BOOZUIoWBIq3IhtUTAdxwLBUYf tCDd2SKKU1xKMgxpLDmrtlwd5QYBwgNrMccVgm92Nv2lt5c/kr1qGZHSlTzYeyxWnAWZ9zNGt+SQ ZrcGzJ3K38K+6K4WGYxFGBz9RX4ffUfLjeJojbuh+80u1UG2oUuaXQxCFXKt9y6mLCu8QGt8eSFL AUrj1ArYvqayUOdagwac0Bza4sr8JmRpys4vNrwzGhNjhFIysapp7HuAXL7gYZLng2fmNWcs8GkX kL27MMABOYFRwKB6qOh4il+UStlijmGmpKu4hHO3NIzZ5XKO2eG+pXAfFl63LxOUniWfnl6OoUiB eAl7+iTOWzaPEK2cBcssFblPPuUYSOSWqqJ//9oADAMBAAIAAwAAABCVoeino/4nhlpK4haxOmq7 lfsSsIExq4MMCOizroG+R3uWzuMDyY4K+k3U7lw/qdR9CUlmOe6WJWKqw/4w4SwffwxdEsINf4PL d+gB8Kf+tGXZJmvposzNJSSpAC7ay2yNIAs/LXCj/wBLH8vMwT33HFicX6guPFWhZRnzFCmWlgWT gxGOhGTZezaHB5xIQfLx7yGHozUn+vO1sLYBCbC7aAq4DdaPbhaZI51bsxyCh40FTxfx+udc18J7 Ddbs36H4LlSgwXDM52witXbWYagwvBoc7Kyza+s26NAN+6pk/nNFl1KoLzak0S+e0hVNOr+Uckrt g7/1a29+TPWyInXEKtQUvzuN6hA5yBCH09bEQv4Z5c9ybVQKyECJD8bYkEwS8XBcfo5fbjbvLzrR XaYvAN7hNSgEtO4uLTvGLpZTGV5GGjR0oCB5z2N5slD+/wC+ESktCilPGJUwVI2EvlQJSuFkpgpY weEd9APjRQc3aT4AOQGjdMGEbOHSh7eR0vFDDdlYP8ZyzVMfJCniITSsAsRdi13chUOLuDt3Vr8g XIQHPPg3QnnIYHw/v3gfAYnnnvP4/P/EACMRAAMAAwEBAAIDAAMAAAAAAAABERAhMUFRYZEgcYGh 4fH/2gAIAQMBAT8QGh6KXCgU+nkjolRxUmENDGqMKei7oXMHw9w2dVySZKN/T2E+YpS4iJos0RUb bGscE6dZeYeZ/BHRoSGsa/h06ENHB8HiDHQ8FPwNVwZ+idGx+lHrQjexpGgkOkKJiw3BIbWxbg3r C2JB9wWtIdsySIZcZd4eHeNGR0zUDiH9ZMTNKMT0SuEwqqN0jYM4wyztHuhISmCsduxXUjoknt9P gUNPEZB8E9F0Jj+4TKOISLsaTeFiDf0bE16SoQqnVIGl00YtFSOjc0OnsSohCBqPEvAnBMWmSQaj ddGrg0gSTQaG6dQg0+iEtdH7H4GzIIWYQhCCQyEgmelG0a9C1D0SdFRg2iI2boUJlZXM9xRnpSiE bQIkJtJVF8KOxOx92KQ+pYNkxZhDdz3EWLRCODZUisErg1dFOz8hKLXR9qFTPaPZNZQ+lJhCEhhF ESohMQuH+RMooiQQxRqGpP5U7hM/I6xBDhDdZFh0rFYnwIQnoT2MRNUuExPEzBODe8IsQ9/wSMWj ZRPwbWKTfCQZSja00KNDUHh74fkTRCE9JhBMQ0Idwt4R+DIFEMvRLWijzZZT6MTEJiDwRQmWKd4b w0DETQkRdwSJSDwN6H4GtaypQ0Jj5CIfNCo74bILogqYtehb0IjIb8J6IuaMj2oL6INRJKzRDtd9 GlNEULNEN6/hdTHLEJSj5gRaQ4TY4AS1E9lvNoezungIxPgyp+o+MEj4g2if4PoX9G0N6PodeEj+ sLY2mIZKSe5cDIm22K9UR/k7HScz0MbDTpRxcEXRK7YkhPhCfWNvCzb0W6g3La/5E1fH+xfF/v8A 6P8AaL/5E9N/ovimkxokGaGlHRNTtCUFcEcuEJbG0EQ2R3Buhv8AIaiF2I02hkG70euC30a2JsSQ agobYlhiIoemf7HlWxVBUUeD7GTH/8QAHxEBAQEBAQEBAQEBAQEAAAAAAQARITFBEFFhcYGx/9oA CAECAQE/EEXs7Hvlm8hYzCwD7CKvJx2FMLO5+OUNLB4z+Ntou7ZfmfqDRLIM8gwf2zs7dTmdjq95 J9jwyP4l4WS28/lPsNN/XEsZ+vLZ7DltmXzlkDN/H9JNZ4jRwnUry4TJdtVP05yXyPYR5OJBJ63+ byHSTthINZ/hYy2b1/DP7OPSUwf1j2TbWuwdCemQwvluN72E6bcOEK1ipyxkLMuLt2WNmN/Mbo3B 2THPz+rq2ba9I4zo2OPww5bew4E3aXVgRHSbrt1ba3AaypyevLfjaXnkPY35BzhetlamJb2CGT5s Mwt9s123Lc3hV5bJSw/D1lPsuWfZIO2cgrhaWD7a+kp8kfYy6Nl9vgZL5dY64QYXq44TCM+kq9m8 R3Vq4TyVd8j4LMg3hDJllvttr+GfzKh/tvLdmZFttlxttjzlv7ebJ+W0mB25kQ7JM338OxGb+MN8 gfb2HZ5M1W3dlD2EDk57Y9/PFAnLp2cS8/G5Plmwf29iGyzeW3VmTPbNkMfZYeyIXhF4ERm9v9JN 95eJfxYkl5kfj38dtZy87bHLxPnbX5cpPwlw8llsXsW8te+2m6T7F/tHO7IQifqzS0mz7t1+ZDlu n54TZ9s5y8XPZilDrEnxZYEGwQ4SHLdlCF/lYllvY/bg2FeS2D8T6SZEM9vkt75YFpIg1tR/9JB5 DBOnJ4PGIFINB2/zviFr7ZEEAtFLdgursceyzy3txyNN/r8dWCB8ssGemJX+zeEw6zXpOX4E7s1/ bf4g8ZNu7M7YxP8AGOeQ7POzHvL6bN6dlNzJzx15AC52yFlLbUXh+OEmXwbXRHXIPJ4biX+96h2y MlhKhj0shCeMMOMfZlfsS4Uh6yI1U/8AJcvn8+zPj/8AY4LW3nbAtBBjpMxzI1l7B6gq/wCYd4WH WCe8I20+SzkL+F4OMeP1OiSPFnfDYrO/0lg6P0+uku6VX2EDJvTCu/kLbhYvYD1/Aa6TteJCelu5 26wzxH2w19h8vJctjHfYborB2dOMhcchwfW7kuE+Wx9YsBhHnPb4bBha3R2Nf5afLFx5AdRdCVu6 wnp2H19iDaNb/wCoOcZF2VNN2R9hwtgGjfUFqEW01eP20n/pjK4PoP8Az/7Yx9C1fewrWzkduMn1 bgg5KLP8uDdmrMdbbrEOIR4QZPbNcZj5EOzwLJx+tzBeLQf7GsAnf92J+Xta7V6XwJGOQ+kfSOYW Y5L8/8QAJhABAAICAgICAgMBAQEAAAAAAQARITFBUWFxgZGhscHR8OHxEP/aAAgBAQABPxAjMKMp 3yt69ROV7mWytsCSDco1tw4mNRVaeOMZ2XCbHaVJegql1rmYQHRKqg1Si5xi98w2FfsPFw1VL0KX XuAYbp7PiVB7K1HQBIyf0ivWvseuYeAs4UDySnwtIKSEl9oWzaTDcbB4jMQDENWkOC4rJYNAXsZe UPqZQVEHfbxLRD6i0lviIH6KnKB9S6Yv1KcTJDhmW4yh4BkxEI4R3FN2ESqrjzHqYGioNXubKNRs buEGcwg7/wDkVu6l5EwxnE9RJWZgXglMDiPodtXAglEOBmhwgIFYGeSvuXZRfBkeLeWtS0g3aWcU mCbnVIpXYfgh2gXvQ71BOYDOQD8H/YADJyGTm8mIbMrPb3ZBcIWjePmIiWOei9SsGlt57JWRO6we KgU3JVm64GWEUXRTHSwzZ1E+QOIWkNEE8sGgHAxrc9gSv0W3CF0eYFwN0oyBsMUJV9R6qReyKlDA puECBCKqBcqrmNUr8AQ+UP8A5XFFPE3GPcpCqviYxZSXzTwRzvidhn1F4S2IQQEgT1RDOyLrEqLU B6Iwah4tCv1EW8oQQQ3BGZuIgQBEiVc8yrTBKzdhuoVTMKNG8ZdEt0LkCopvd1jEaCYGXp+ailHR S0cbc56gVMNaizW8OT8x0BrIIN/ouCDXTsjf8xo9g476CFnurbZ1ECRQQW3u4jBWNK3bzLFvMWYG CBc/56ghOlmmZIDkc4iB4CL7JYvvFfEYnF8MYIE55gkCHSzGNzE4Q+eYhX+JhNXblIIWVKgIQmZw km5iXlzCVl5qJFobhybuXY6mTGxKjwwGPiVDVjExuBu5VxPTEMxqeFQ0ollTwyuYN1KzFTcKpx/J gmxRYiHsc+ZzADHhyYK4hHKAApXtzCVU5xqqLvw1CffqwcA16xvzM9QxBpnG6yv7mPG0qMWwEcNi AW1145gzHNpQm9Z58kSzFbEVgn5QW09UcQC0q6/5ZkIte1KSq87gbUjYDKptWpiLYmUrNPzOJeTR xBZtpeUq4yIBKcFR5kOrsIssFOr+yLHNa3DyQgBOCajfgGVglMakVR81CbhgjwfCYchxUF1JLUoi xZgollRoKriWM3FhkhuBib73M7WyXjVw0xll7zDhUwYmQQh+1S4PErZ2TSoJu5icEzicQr2f6xAy OAwhJkX7j2rLk2XpgTSxShavLKQ2DqVTGzn/ANi4Iija+PhgaRYmBbbXPzOY5q2OONKd+4+bS3w7 ePzccmIvPsyKs69QF9WX8hsV/iHB2lBhLo8fzB9lYKL0vqDVaFo90KYXMrPb3LgOaPIQYEl8xcHN 8RgB0Co/9l3XRbVs5JhHEoZ+EN5LCEa0AFVWo4NLYNxcztrpfZEaxmhplzVsL4hQlRkJa3TiNY45 qBAXUb4JD5AzEy//AAuSYcQO+pQJKWNy+EwzEhaL5mFTIR0wgVBTpjFmAvOJk2L4iF1Li5OogVmj ftMVKwRlprUrbqA8KDiSEbZ1qOyO37gZEWm9/wDbi0ho+K24/wB8yhhgqiwz9XzDPxFswKKLM78a jO9Caq1l+/qDvEO4BdPenOZeJtSu6wd1iZS1mNiPHCZlL0s0wpKgi9HYtd947gRlEaKCdu/mKiis YtGk+ZgIFvS47z7l5Eedgrio8sejXUZ5Ws7V6eJiNLUgvYxKKN9LOYLKLwrERAa02zAUC3JxUIBw 3nV+4B/wceSAysvIHmUYSdxhJcqUjzMN4YYn1DK0DBnqZTP/APNVcYZkWYwQRVhMyuSC+oNTqNF3 EpuhZYAupYEWyyl/15jNEDPFsx8m24OQuC27eYyper48zsI7ff7W4Ni2Ewa4joumE2WEXEZ3TJg7 AQJPJhEVLYEr8911EC1BkVFuPuG14aaFyfnNLBKwjkS7dqjiMBhaGhta99EPplLVKNHjXMwmoN0g ch+PiM786Fn/AJ6lgWRsBxT1njmE1JKThQAdsKICC605ajtAuBo7alBisuBSs+JcWaOcTqoLRjQE x5CZ1RyGfBKxJvQOPI81LXrfBfiKJQqln5lSukbXPkjgDAo5jEMIAN/UQtOQNf8AUJ0jlmyGFAHB shFdnMrmoCO4T2ixG2NTwRMC0nFKghqFkhFdRwO4DTW5zJVzM0x4iorcMtmib+IbqgJsBa/UQp13 6NEVa20rtKofEJT0PB/rjJANnANFeO+5enM1TdmYkARpj1atqUctYSgyWhskvuItTf24XBhpcbtM dQoUw8TC3q31EFxTsR886v8AEoIkOM+zXcsaNuGJRgAmNJV75PF4PqDRTg+0KucJnENVJQDfl5bq P2G2JbUVqj/yAKwiDWmL1L6EaEvf/kDYyjKjF/PjmA1ljQKp4WYgdBRTv5l6W8Wp5HYSx28Zef4g qtlRRH1LfzKIu/BHVbhbKNSpq3jd9EuKEs22vMdlENYUTUaqP7h4GVVrN0g7cxRm++llUnAZE6gU GmEhw8+oh+wpWGXSRtn/AMaMuWImCy8Xhwx2UZJYGy+ZUWKspog1PNoXwRyqCuFHUPC2dRQp8W/E AwkFSD9uoWlmqNmh3sX5mcAWVOak5Sn6iXGAooORXEdan1DC6ZlFcsU077iwlpuIWyFQuCFwjhY8 RSpXEFTHAAmFb62REYApYVkq3a4/iXM8U6/yoyvACmC37PcEJJl0CraYjbpYLhNU54I/WiIuj1nm H7AaBworuZEtDBTCJG5IxLGTgG9dTS7hG+SjAv2TOlSuwNYPLH7IpKAcPzbMf5iBgeDPO5eEzSw+ sOwgagveOYYpAd6L6GWMyqOA8EHorYlvmIRaQXIE8TQSvbv1EQ76cJfw4Bg1ci8fq4nNu8QMNMaV bj6x2KLa39x3LXVFIaHkh3YjdT8RM6S1mDEeYJYZkLyRO66wTniZ4Dthi4KDs9ouUZnl38wIA9tB zr9RYBWcBwPsgqF3HTnN/EXfobN7teW/zGQxC15gpzq78x5sLIZVrNB4lYo5CIOTXWHUKUiSi1aV OcoIcU5jtU2gLq8pje6m5NyroAFsWwChtfdZgrJmYFfS3nNEXK0jqENlHN89RJhEzpR5/PxNgC8K eYI0FMH5VKsjY0EoI3RpzR49QmbRLwKvyqoK0C4r6h79w0ASlp6cVlHUd3eAinxr3FtbuShzZ8Qq TMWgSdHQ+4NoUths5315l4GKyj8qm5tkAPVHOZXgVVgy4XuUZ+stN6SVCx2UD7mQLNeKF7hEQ5EV XeZVN0uzAqBtLukdQvHUxTKwvbqgEmQeiIuA2PUMxOI3dGJCNqzUKUzqYLE4BISjYupWtQesg7Xh 7xSgJqB6Aq3Cj71EF1sED9opEUcLmMHyAbZWGNvAsvKFJVqR56zxFY4ig1QH8Q0Liptk2K4ay/LN Uo4QFrOlthU3A7mfkK+YVDTamJXL3LNZgxl8S9IPM5SKiMbcfNomBUKsjzovOOpufQEBpYN476hq hW6wYX233AjsyYnoXLtioJ9toqs/mFyGNIKZqtfMsISlbFeWM3Hq+1SOVn79whIqcCYyvz35jJbB MHyrn25hr8KtofhFXuohjB9RwWazdAWwY5gD/CXFNV41HC7hUbOFcGuuoIRDk0dixo2opKQ19xtt WSBQHUtyh0UTgZbgbhVm4v1sFXfmXCoxjLf7gsKthN3AFygte/mFyuxuHhUGUxjzNiHCwwCnm+GA A3IwN0ZleoQ1GdqGNkbF8xGRb1HWLpKG5puoIEVTRHopiTHOy1Zx6lhZeRd+eYY5CyruzUxKBdP3 vcvyFsXqe7fcF3O9beDFc/mBGgvpKqhHTW9/G0yiDMeAwxqZvTZRW1fG06SjAeUflYcZXgCqHMoA vqJQOIYvI8f/ACqVHEsvLVTXOYpp56YAdK66JbDmxo/wPgjqPXGlJVbNYnG6IASs5aK0nmd8llWO 6Ngl16m9kFVh5xnECAmtrGm7srqPrJfN4tB0/iFUEUMnyD+vMZ4QRgl9nzivcNERRFotFPWYNM0s cFVs5P6gGqrpuVW2552bgafAmwuAxj3EXyULWq7tNfLChMG/P7CFp3kraEfOoNC8Na058Qah8eL4 ZhNThAvzLsWrMAhirxptx6jJvBu7WocQiixmB0MZb+4hgXTs9ShCcg2vM6WJbkmdowgc6dRXSi8R lhGVNmJZkzAti3UUWwOYEeIEIE0laQ4x6lInZeQ85/4RlAvi1hOL6/7HbDxVV1ji41TAaFnFQdKD WA/DqPSWFAt/zHUMkXUaoDYd3ASYjJbv9fEvn4dwG7Joee/Fwhu6MgLaHSUx3JSguHH5lJCo0NpM u11AIHxKrmzFXssvcI1HBE+G95/EDTC16lNvld1LuWUWQmPz4l7KfQEZ0c1cpbFZkiOB6q7lQKIb FSjvz0Q6CkBKVeq78wPpjKB0DVAGCpiARzXd978zdSARQja8Zi4G4bjwDvEHlUSgpXi+C8ds84kQ lSVe9RVI1BUq6t51Ma5wpejZqHUGgLcbzBQAWrf+EFK1bo4JY5cTDC7FL7v94lLI7X1+9xo+R2a8 UsRoa7Ty1+Iq0WiFfJPuobsZgID2pj5icjMoAqviBQK2FaHvmWq21C4+Jn7gL/UuipukhCbMkYMT zEqwWBNG/ULUiGjSQBAIfFiJMGjUBdvVQZgIlbT8aPuArQoybRdFnH9xWIgEqizzHPIlmU+Ky8VG mcFbp7dtw9CHD1Ddo6+JfsAb7HvUOHBSy3fLQTXcLQ2BSpXySvQ2XY9Xi6l7prRY9XfqG6OQpa8K tN8pCD7goaZR6zKEu4FtJ1M5HqUeQ3U3OShGNwvm1F5aRQqXf8OgolZ2Xb8y/OA0ACqFfeO4srGU FOCt1R11GMSYLDSWLXiL8kE4Qybqr1CMCpVgRZOuOOpQjpYYDxvSIo1lUU4M9s45MLGs769sBwIC LvfL/nMUPLmKoBdbc8yiIFGwvyyoPKfuDR9QayG7lDmhUCkzlpvscviKgOQLJzyifLEFotF4WEgm YmK8QcNppt63dmJhrbvHCq09zR+C6o8Ol/3ETmRZzPQxfxZC9w0SWDWavfcXGYUaHJnZqOy8qKP5 rnEcWdUAw7O/j6iAA2Kn8RHjVV+UF3L4bA2DzGy4FV9jEdkq0C84z1KN6WwUXpr55ljtPOB6Ig3L yCfFllytNmAMP1H+1hl16gLEh83dbYvG7C1nOMfxFK7UjfQdHEEtXKrv5xVH1BmGFRrThnil/Uco tdisfA6wwN0iLXqrgRI62jHxiXC4Ct4Q4gMUUVs1rUWrxHC7Dg1ZLOTVBxs5JwPyQg7qgBfDOHE4 rgCCDQG5hDfqZuiggblPVRviRvK/lyn1zK2yrNQfuv8AcI+G8wP2xjVlHQLb50MBv0pS9FZTHrJG 16lTD1h2l7hpYtCrvYTGL/cdd45tzg1f9SsUS+oZa6glCtFSWxd7o75jVQlvgO0iFBYIA+KMzEKX GAX0F37pYhS7WKp9O/ojCMCn2Gf1M4doLr56eo1RKEand3X2fEJ4qAEBxjh9EWkaZIFA6owBZ3bH D4DhmBBuV+hv6v4lendq/tP4YMNcB5q5bDvcFADC2QveP3AakFA39PP3EoO4tOzZs/mU0QIcAeOP xF/JVPCtWIc+YTK4gWIzt38jLTIls+jr63CKZ3yh4Ra+QgdBmmUa3Z/UED9ClBm2wvzL0PFMKzZR ZUDaQYpri4s/xBgSClUVyf1G0ykLCuSliLrmwqHur2+4lvNQcAHNGcxSozTjK6RphfCAql3nX/ZU abXdKs84E9sRlpAtwtWUcmB9QnKk8tmILCxSxs7m38wU3K6sCrMeMAAbP8r+L7KCUq2+ehfBKwgR R4ag5qPCPddEF/yQr0ySvHDJzKdkFMItFs3Ad0kXyR2hGO13rxDB4syjyBi4eieQc+yULVv/ABLT 9aCgt3lWi/UoPvdK91ZWN+Msfc0D6Qm9V8wRaAZrSu1euohwtaWqgbKLu8xhmMag74eY0MG8NH7j nCZjZvApo17mp9YuAdC444WWxhGU++ivNRk+ASj3t/2YQyuQ5HF29Y7g16yjgeXGa+vcD1pIy6fG DXMRccoQ+GM36lwSBp+hKM/mGBiAfJ4hSCqsoHVWPHESjnEoFtobr/sUGWmDDvAz+ZTt8np4sr+o +FAB6+TcspEjLJXLmMEph6jxQz/2DuaqgYfYvXEEOJGW3LS4FAsaBw7/AO1zLmDoE5zjY/MQKqo3 LrO+pnrXAMq9v6O4ay1HV3ekr5qVrkS/ODR5xArURmKg5pyJYCCwaAzu22tExc/KBfHQeo1tENWn QEdZutvaWauuamw4hgheLPbmNYqlF5KsH2LCWjaKlA4vxqZ97KvWLjEaG3olhNQWvXC7QvEGb6uo pbqTxaUix0Fp/wAuXkodENCq8yoaXe5ed0zC2COIKuiXIbEgYeNOMl1DBhYYK3V1nBXqoUR0aNKU btcV1VwsynMIckbq1x1TBUBtghAoXkY002RKZKJQXSLuiszmJGye6weIOLjDBgct/uKGqFXIn0b3 CEyqLFTrvMKMI2EKVxx+IgM0Gi9Ve3cSlGWqR4X5zeeI8hYuVn4JUFeSI5q0L+DmNAPcAKt8HcOC aoqkth0t+o5NRIu/xz/EKUljOW/P8QiZGl5/35hjWjbQdH+qarRHBPRz+IWaL2IvgVf7iVWS3F83 Z96mHC2bfb4jhv4Yj1kUX3BpGvEIHY5fqc/PTgDytwpEApupq65lHgpSB8F0/cqnENoOwXl1qLCF HyYMFuSMm6W1Bj9fq5VhAo2TVLs9ZzLatFceu1efv2QyVbdtne1fPi4C6GuTQcLgrxDzhEGnWDBV 5ljcRYWvNdHHzBijKhyfDnDb7nTOFl7ayrOV9wOAKGAlSjDtzvxGtvGrW1a94HqmAkuMt5ch61Lk DRRUXu/Dx+ImxQbNrDr6ly//AA+IHAqX5f8AaAUyh8uJoWs+PKstufcpGRtHMYxUHhmP9P4irbDC p8NRVuGXCoI0IOTzvME8i80Y8t2q/EpJbUUBCwduiK7A2lStIm6cVduZViQw1VoOAIzEdhBwA00c LvEH8M2OXOOeogFMNlqmefUoxVW2A436hWVEWV5vv1EtUqpYXu3+PqHh4ETmrDt+SXxCykCrMmr+ viBdewPs0E16lDRParFdQiy20PyZs9xSdWUprdOOtTNGMilr11vcuNovFoA6qAQNWgErVtHMTlgZ qOqo7zyyrdBS6vhpwf8AZwhabF/zqNvW4s9hKx37YiatA2fwP1GzWbV9/F3/ABCqXuzHdA3Ey15y d5NeJgduIx71T/sQDzfuien37mVxCFct4x+I6V9Id/7NMsv6oB0Lt6zxvO9Q/wCjVO3H3zrMCm8I srLVbvXBlmIDtYCDV4/c32M2/wDXzDcMAlZ8HBjmYQGkDrjxGN9FWHoo4w9YgYb1YMgcH5/LiAgl ubS7X86lNri0284PU3hEEroji7q/UrRJtZbofxLARjvmLdPgr5j9tdt8xJN0AvoJ/MUCVdH4/wB5 gEuoPBMDSS4CZ1KCJPDC7MUwjm2oqUziV/GK63MAoKGV8WzCQcw0FfeD8bgQqUUMyi3WTXXcTHyI gUCemz3D2fCpA5SAOuYTBZai7VTeSHlM5Ogb1nPmAltcpeLef9dSvzw68W9e2MRZKFEW5vR/sTNw wOKeb3/yFlgX/Y/HqWUL3afNYuW+hJvtmrqXc1lLOGms/olSsyoujQh/EbyHwL5U342xdAt2DfjR efcO72rwXw0ZlczIBs9UfzKlSkESxybr/alNU4WLXwTbDluD6c8TRMK229yxQ6Zw9uIg4JzCHzjr 1LLGsBVtrL44mTU3NKx3nFe4zwKgN164+XiWE/8AMdGK8R6Tcpqzx43GCtYsWGs4/l+o0giAo0DB d99XHXNiLGaU4qvGXM4D9Dhbz28ZevMNCjS0lBgevz9PpMlZRalqsu9wuHrsaLkHr/XMHCigUtVf BxlgDDVa0eOOA33FDnRN2uxxxdHVSrOCNqonOv6qIUrqWVaf9qF40gtprC8NXCtKuKT/AHEKKux7 wP7lMUPmOVRtWW0CVkiNgDGjNvZPeJRhwTdkfsbMX3E2PqZFcxK3e5YAQKamwAvzfqXLGw9QdDG3 x7inuwQCqs0qj5Plh4dOXiVoUwmLO5eDpUXH5N48SkkgBcYADQfiEtS2dh7dQ2+jAyxqqz2ZhH7J +C7VOaElqoAkWtwPou/1CWEi7l4o/B7g0Yi3Wl/l89w9VIWl/m2LkF1qoB4OYYIi6FPikuYkIhoe xLPzKtGLQpTinrcGKZg6KvasvMKytkvyO/qC5FLLp7Qx6JYa00hQfCr1i5U3Y6JbpvUN1lFXmiC7 Vtm4D/hKVgEDkvv3CLgJlC15RlSsDYW76PH4l/CUmU7olfv1FlBYBU4DeuqDxHzOt4plwpa9TCGD AjHOS6+f6jeAhKAPb0Y9xbfHSV+OMW8/j3HqgEINhVje/wDdQfZYAKrxg/2Za8bg6aD0ZiRneFQ4 C7mGi8ItmqP24ISsI3Mb0U81vu409MAbAM1fLb+IZ+UCzga6747iTLcCzaz8A/JMzpQFLzZ73+JY EKByWH7zMNV9gRwFpc15medIpG8sKNBbEZu+IlMtCj4jKfCXjQPESXUSjlFBkvI223jHMMzSm1Aq 8HxHiBl2mKXolw5TaaA1ao9ftlHcrpX+0r7hMpIA4VyasOfPcKW7C3DKYFx5mDqcypDlbu/MFYZQ a0G2/d48kYAttiDKh6KfUyZVcBoOPzB2+IFV0urQ8sCisRRl2NlktMF1Hjl83iFg2LKuiunLEdB+ RPDR/cKglsuLk0HmY8FWBs8V9Sn4lpSPa+fvOIBIALe79Xn7jqaThofoH53D+7gxvvBYn7g9/lcY cgcHllZJRgL93fiHfVa2ScKIV3GVZT9+jExVxB+ACiUE9is4VjRa7oYykgNEBgoYOWt8xR2YhzXt A4zz/MrvtvIoF2LWrzkjIKHKGW8f1D6E2iqN7iSoDrRiq+7/AHL+hBoSg63KrrymQV+JXD2GSGKw 8bb5hlq3YGuV87QJQ1v3ot7+4gaIttQNCnll6z8Z2GX5WLfsCq6VP0EsMxQqpLhfdol2q/Qpnn5g 4L7vw9sKkhhbZM4tcDYoXcat3OpgWQlKuXnQ6ncjKm2PMRsLLygksKFXFpJQ1YZRiCGMVgdf1MtE ig9cY4lEwZoQbE9Rh+nX4ODoqLJIXZSlxW+N9ypOwoG7u3Cl7vUqKzOiWKqzex9kCnnGWztPlT79 TCLtVAoC/N/ohF/JjTgKuw/cCp/RBWHWbfj4JSUbWBc45fJC8MWeh48Na8RgUlW0a9/xGAQUklPO DcMgODJXODTgCZKBEsAXycfPU1LL9JTgO4aSgrM1qgqIHllTjrn5hHwBbr6Vjf8AtTPwtFcfbaYX xEHllroc15lWFQvHfIn8xW10BFVh4x1GJryE/BnzEGnyWFY/6zAJXbA0cdK8LlBCRAK5vKB4uoGy hRWy280a6PogPt1lQKK22olvXmAZjssuEAxMTZq8ZPv8w5OsAop7zuCEhtYWFT/fMv8AbGLoVo4z 93GsV2qDWEXnlW+Mwc9St5BWngeP7jBdhZwHl2DUHLAIqoWagr2KZLJzfoMeWNGF1qcmQ+a+ZkjG l2aiaJFNLxUR2to/IOpTEs5gEWokIhLtuoDiCdMs4QAaUhf4mUAYmVxLcjYGztPEvE5plbcfDLZt soVS5/FQoBu5UHe+YIJa5BStqxbhSm0Fv/kKpuVYZxl55/UEykMW6K+d/cq5LQN55L8tXH7410Zn 6H4TC+CS2jJfTTn3BR27VeOy1l4uoGJLbZPl86hSDNoiaHfzUWHLsGG92QYPdILv2y/UNwLI4bc6 iMhcRQ82aP8AXEHICru3snH1DkXW+yjnOfMD72yXRLv6gDNDK5Dv4Krr6gKhytP2xnPUHEwFrpOM 5olNXpGBe6uu4jtPgMMGDXWVlElGFj5RwfMxTGKCHNt8V32SuaUCoLcXRnV9dRFKF0VNGeOfv71A tBmavipWD/2XjUW6CmA6PedxpsWZWkxyz6/xLAyiIlrrYe+o7WisKo1glYCoab6OF/EYtVlTsl5O VPjM5CExYV156HcPTEpS8xpoxxfvwwDmCyqiyA7bW/Mw3LnNr50/zEe+AovRf7q5SvpQcezZ6foY GxMBOxEME3BjwJCF8syCw6JdyJeFncaWdeoGrJTKY5gAJbzcBQZSOEsQqL+ot3UfSy4ADaJvZAJG BGwbeyCQASvd9pAiRNuXPxFDW0VO0nmI5Rxl/WZhw7BSIpN8eOYekTyLJx/uoXpRWUElHga+fcXg A7eF/AV+ZWqHRNhRV/ZCqdVmVfn2/cAFoDYavVtbrNYxDC8mlJkxn4h7VooBffqPGe6h5EOCEomm sGy+CYCX4BMNt3nqIBqlLyKst1cO0lvAvm/MDkBvZYtVvmYlKyw03RGdXtWV4av5YT8i1IK94PEM KxVG3i70QFBgQuf+EQQi0KqbzW4T2lbLQ/1/7IAUmci+zncsR15mZfxNprL1TV1h8H75owQ81WX3 ePmW8LIJfCLfFdwe4qQtw1j5vXfytJGqxtvrn15gqKaZarW6NYv+4YZVmge8YfeeIsHGzgzNW4cv qYJKEAVasA/CWrC02eaAvgj7wcr6/Wn7mRykai3Hw0fcvcCKtp77IaMoqHx/3qZyBo1UzCL9vFbT LzKliTRC+Y2AM9y0Z4JEHjwy15GmYRsNYhoCPMKDMehohmQZky6lrvTjtjRTR0HoeIjDWBna6lDD QGWCUtgjVrpMqCrd3XxFIRkaoCj6x9MoXlUwSW/AteyJpA8ljaDvS/aJRTopwIEfqAk7r0cy/A6C 7Nf8xLLgu1FDOtF/+yyC+AHoa37WCvHaThd1KQjry33WDqNuALJQ6m8QGn7CMB4DwZiBYJj5Fdrl 8X3CaAhOfIK51EndmC0dPnBDAi3uHqiNcSsziCVZqD+GPPBxDgUN2UJdXXnMwNwugZfZrB3HWAcu Zx/iXGKyCjJXX3n9S3OqWPzXX4x5uCDew0Lcbxp55gy8kdhGgayUHXxCqAN6WsHyuGWLhvns/wC7 jpSEi0cqsMBGwU03EUPn2HGO6v7h4EGDBZs/3UsMG68XbWfH99Q+KOD52rE7uKDa+vERchoBTfUv FOuNCm2GERam/IwevRCF5XiGnBglt9ylAqJAbfEKDo3TL1LTVETEL2O43uLgM1LxK4LOEYwWSLct uMRZRULRlo5iYJ02yVczmtGk0QEU6y/qBajkQgsM5vCGkP8AH7iUm+W7qy/q4LlgVBSXh82P3EYh Ye8YnXcbNJFdCqIV4WDA/wCzAQpYA23Z9717jwwu9B14gAkitZVWdv3f1Guiu8g/ILVxkc5yLd/+ SwDxNagyWf8AsTVyuIquRWiuY6bEsKr081fEAwCu0iul65xFngg7f1t81MIRWbhpMB+IAO4vE/UI bHKQXD7ZTisVmh/8D/ER0LNGA8/oj9AFVQb78f7xHGtkoEsCVAxQUWwAa/Uu4FaUm9te1r1iIPbo hnf65eMSmjfydL/yX0BOgFfgL41LPz2XMeW/tietWMCXvsYvn6lYaEfZdl/GIlGkocgUga/7BACG HZvjndepqlgKLPP5gADWqceHqUkNBims/wAQCLjNyW7iNdskI9oF1iPlLjlBBDc818S+5QE0SKhd 9wIKj1G8CJFhe4cCrTcND8CVckIZAMs8lRqmrAFPZUqvo2pKAKkwyrl3pe/UHQIKcEvOlNOVW/AY hUjE3GV/r8kZCAt1o38CfcLYgkAZAl+r+Y7tlmRn/wAnDLjWXxAdu2gV/qIh1o7lL4qD1XBbFDva r+iAHNbfwDr5hvaSXspv4xEB2w83eOpeFlhovRivp/qDDZLAGhX7a+sVDh4ga3Zuuj9xRNKAxRgP zKcsQYwULK7tr7jz3gr6Zf4+Y1hBZxYF491F5lBpyFZ9ZalXlLZPNfqC+qraNeP99QIBUWgCzJTo P6mSA9rZyn6VgOANDgFdeX/Yif2e6Ldr6/EqCgFag9btr+Y2CNwCz29weZ4Rk4K4tM+47HNE1a13 QRQ3B2LBxbjzl6qB+t1QihXP31+ZdgEgtNe4w4qU8lU/lmlgBdm5qJsbrHJCuh4p+5dkA2wSHjg1 Leqw5FHQbY3HgzEAYEZSjWKhIVXzbAOgfDKWbHMAtTplIQCYQl9RzcvqGnOlyYeB2zCWFLFOLmYh 2x0UPUu4J09D7qJ3VsdHH3WYQluJFowcUViBKCA7Ltg6Qv3BpUAXScQ0IGBLqYKoaKqI9uAtLryx 74ioTn1FCtNERXwL/UFGGlQpjPF/FkKTNSOYOwDPi09RP2Uro7/8hFgDhuyxVfrn7mWc3RMxz07+ fBClFwFNsB9fxLC958tvgPuX9Th4tOfqZTQvvVvpa+oglalYaD/L9TZgFNf7+4RuuFch/wDJe82p ZafndfUGLA0rt6/3MDwBRffV9y1CxI96f5xG2F7pbnL+JndDg1bh5v6nD8lIVjeYXsU52+cVHFgY jnrmq1jR+DnD7Gw11iNi75Phwx1WfQLCD4QYoI2xrPzHRlw22+/EqfICuGDbgfMe0wfMr4DKQo/M cNq+YXW/3MmE3LtuTG7bMGKUI4V/MPGo7mWeDxK4ZQUXWOFIa1eOpQBSLRQfyleoEZZIAXEDHLFo RaqXJD4lrkD5ZYt3tW6ogPKV8xrmiu6Nq+M4+SB0LVdXaPuAFkNGxzcKM9dxoEvtgAkjju5haRSg o9V+blOQhs2GbX+D7hKkqc78n3yTNC3m4ys5u5ctGW9jrmJlSuzdO7/22OBgSXpoZv8A2L6mTs4G l1fpc/EUVcJ/j/yFpEtVycn0RyRCj4Rf93GqCGHLYuKHGlT2B/vEoyb3jgxcqXoLXCrlfiYbNcZK Ka/cOaxbchWI2REWu2//ACKhgO2Fl8XxVS/EMYfQAeKu8fEOwLZTVDjw9QNclKvkorNSr5iQ23vb RniMZCBrLtf4IMBcE6C0fMGBFOohx6oIZgAVsYKv8TCcDBy0nUPMdPkRYrmYLPtFwzUCK3BSYAYS YfDoqn0gysz3Nqh5nr3uZ9g1WowPkSmVPWYYtf2iVQLNryvqCbyi0NFB7KqXuJc4DBQvjB+OoC2S QUrdz6P1Nz45nYfkRzqeIpGx8RMt+odjNqSo+TtyDW2EUOp0y0tsdfPlv7nT9smm+LfA1Gqm5QLa EKBx68e4iWWAu+6aHGNzC+QTPHXuNwmjXvP6hSkVLeTD/fMfS2Q3naEwUQG+buVGqEO8Nv3catzI X9pftLIBE2QIUE115YkmS9dL5IHoiocE7zE6YCW1T1ByKTHKROOnh+krKkI1mzn/AJFQyhRhzjH8 +oIVNBikat5/MpBkwgOfJjsikQNrAjBPrMxk2ryjA+mHAJc4SKgvyPEUOG2Oh01M8WoivMAFqV6F 9SwUW6mVb7mQMf8AyUU1qBQZ7jaOE0gKbQCBbiZmSmVqCKGWygYpYhtzpR2/KB69w00i8WiuvsGW pnUy635ar3DwDbitIfW/UZikNjxHqQDtJVwEOah9EnSJ62aT3GSJAXA+fUv6mDBVv5/uJEBNFxXi U4oC4o1n3qWHPQowY8/3llKdCtttq/H5lEDUq6/1fUoIQoOWCyz26P8AsSx2zFOG5hLYGLrUTcbu woiRxRXC6SHSSKGgemKiWoRwm5YyCRwno6hBdev5TmEDjU6pvMqoSTqiROwtYTuUkRdfAf4+4qw0 RVLyPriaLUZAF5d+ZebIXqW4BhYCJOVfvxDawsORzBr2fJ8yopmM3giFhiK23tlkG2BOEY279Q+Y 8xVxgJZhRzBI9TdhUoEIinhxKrJmUnEA5TDYsiLckNuY5qHI2YeD2xdBjOagjW0WU0qvOvxH7wpd hRfhY9LAF0kJyUf0WCym4yVFzJ1C24imFpa+I2gCO+MdR2KrsaJYAUwQwHdRdOALa7vjGfmItAHN mi8av3iZsakAWFrWgPzAwjbIoVTX6lulaGrdWw1sgS60gWv5BNPPMGGOrKFcrxDbwiLIRfTm0H8b hHRgAecQBiaEvx4uWIdTAG2GtwmyQh6uLdRU5AV3erLdRnazmldgwRYwtpkrZKdub7nr3AbEvJdz K3rQsOVal7SoAChOGtQS43FmCsmfUCSwszjBCi1U4K1nrLKBd448zI+PMb3JQQDwceoqANxeZccm 6csENIapgULe0QbibWXVLxB3C5d5HcG1UyxWSXViVL3+IlHiKSm4diwEEdOoSJflBqKT7goGbqL0 AlDCC6/Nyloig8nxjX9s3zsOywA9v6iCaBbuy/gVKSQXsamcyWaMMs9eEKCwNx0dEO0IC7tObhBh JUt8okcOG8V1EMbJUV5V/qAZ3LVnrBKj4q8ClY+f3GTgdM3n7cSmDbY2UC4EFYo0TNUGmg79xEpG rah/1aifSKb7HzzMTvRmSeo5aFrTIcB3ByNoKVTtdeICUVdID96iYKtDhzh5lzTlTNs55JpiwKnZ T6m+GhcdTwhyxFWqB6iAJatyNZM8y1CsjIHj6+47SoSMHJrPruKILqq9lOv+yp1OBN0r8QBN0tYf rP6hBRxO9H5lWHJbMBU3RNMU4O49BZ6MXZMI7TSVmIdAJECEdNghBVxKue/EpXmojW2CiG80c7Ik FPzNjdSo4joShLDrI5H5fUIoAUAAShDniB+3xcarStolIirzFQKQAozv6EHiZcepmgy15yHL+rMp gCup3VP0SgBpLhy8/m5WHBmxslV+xnLvibiIuUquYBuoLa+yFQELC7rqArBINrAs25YLOwSYOmOK /mWbK58vJ8xbgJ0C6D337uJtGCXesNefxFg7DaLNhMvwAbcfcVWhIuFNqmx04MUO6uVc4aCUJprX qDkqku1N3+IQNLXtaEv0yobUiKB4cV9wiXs1AQzznUSuLqRyKHRALUravCzg9SuEEHs6wdwSiph0 dVymoEIN1ldZuuSMI64XAYv1B7Mt2lOI1SI2CsXXjWJjsbMlVhtt0ecfMtZeGJmw1HLq9UyPJ9/u XkAQWi3shqmY9PE1TVVjqnSGpbrE2PUddC6UjyQFZJb4hsYiwpkLjSkLVZqEClyKgnA5wTfXYYn0 VsGmXwVA0bgRty6yRRGWAiQYKVVfqBQrmGAcYi+iYHe5VBrtRolduQr4nOfzEq2odHvEdtLG6yMi 726/DuFJa8CtrvgAfLBFzcMXPb7ixjtkPTcAuLVMWxUisuSh/bF0b7wSzpuEUjD0phHUSV8rQmEC UDKGTfyeeJltag3Tv+qYg9isCy9MTMqL9Oa8QNGL1RP2F/cVisHfEKg2RS3q4fnRAp5gSvzKfcou UyyZHMKIWoBVvvicGUoUcqEM6ABUNYL4Yv8AaOpkyFVfWoIsJLaXvo26jBQqVcWKrl/qVjd8vDTe FhcG4CxHW8V/cv0ob7FV5+0ZACN/qnHEdYUUNuDgeBqqmEvCCbcZ5Je7mcIBjxMIJwPIMflqJ0I4 pxd5+JQmKg6OPEflyXjMevkEN3HpInJiDkjx1EgE2+IcwyXW5eiFwmcCBzBqIZtVR2zMXKtANyhp WazcTv8ADe2JOFQsMEFS17xFt0wyr9viNIAKn7epicorz9QYFdd4S2OufCHeBTaT9Bu/qCT6uNyA OgXwOiNrVjYJQOSXjgGFAaUWQ6w4lWjG643gfuMuOCuVytv1Fi1cJZ8hK+49IzdZK3fWoHXa0Ihx RRYIZ2wLY5latbZRX4ur1CrI9D3nu8S8vUoBBcmL95jhIbQvhn33KdVe6RfDjxFdCCGRaN3fGOfz Hf8Ar4Lq/wCfZMrN1kI6SoHQk40EAgNd5ClY99QaiwBa0BcN+hmOyC0Zl3z9S0ItoR3eNNceICiC okpV225/3EphywkV0Hm9eIZzuGP7GLb48kTW594CtKti7SDh0VRCgbxZldxuirxAIZL1Fk6R0BVe g0ruolFwsHmBQxxcIC2hSK/QS+o+EtVBZvrcMVUcPL8StMugYor91CgogQduc/pI4EFOGLzf3MmI dJvUS3OpXfJM5vjM3sJYZogWJRq37IS3Aw1EC8YLivSLbc4lbIAm2BViVDfmHvcpxgRyedO5Ql6r H1A8w7IDcFgoBrwrL62NVgBBBaUhnyjv1mGTGYIEFAsi1DxniowXGBs38f3ORS4LjD2qv2xLQBfC lqA6H9xTNg1gVH1kDoMfET2oGZubfxABh7aVzyxoEEsstB/yDdAAKUtgPNc6DMs66lEDer17gVHw xuxAz65iUoHKsfGoUa0aDnuAu8AzLsLPiO+GND2ZKioBbhgqugYxDt3WJhisUf8AEd9dAQBqBV71 KhBBjWM9Khad9w7FVd6+MxwSUwgTGzeF5gpZqNCnS4mVfFDkNDNGcrFiicJ8kXDAAK6Z5HEtwwtR HDDnRCGipaSNG6t4uKuf3WxMquqK9sqcBkr0yDF+9ywu1wgq2Slx9VFCfEC40Lk6QrXMIDQw4rMN LxrXUVQNZBQdOWExm4FY7/7KBFHkCqo9w78RQFP9/MyoxA4ciDpyFs8CocMhsU7xB8FWviES12Fj L+NcXTOI0qgkfehitFq0DVNlGMJ0bbqBQIasQ9lCWDTGJCU5CC4jaoL6gqxCgaPLE8Kq1l/oURLR jgVAVKdS/d36jpUcbcrlBS+V6zmv19xomyuGXFxYbnsH+J/alFW9TbgShS3xGUZBLs5/3zMJK2QD Hb5YIAwISrirRgC2Y4MWJ2y/Jy/XEvhUioVWd4ZaVYBcBoDj4IWaZZBy227XcBFC2AjOYaw1igMO Kazhl7yCrm1j1K91OgTh8/OYA6FlECvEAGxyc6HOy9Sg2hUKnd4/mE+UVNIYoCZrsh0tSFEpvX/N Qy0I4hJWaC84/wBcO1xaQCxLV971KK/cHYV0qemPDSnPb0bfUBqAtmjhqvzFw+0JV9j/ABHRSN2b VLq/7gyuDZRje/iMqUK7N1wkZORWOHkuf/JcgMEbZNtDqrslDAttThdnbDJIUG77xuGtdrhu/Y8x 9UBN1xT3/EtAK+4Yv7gQBgb0DTEip17hwO4GjZCmmBpT5gwpqHhIkVpbaUnDVqoW+S5eAboAvVwY GJlmKkZazmoXleZ7jFwFD9y3oI3/AI/5CzNo828xlz6WqOMTLuS144jGWTaIGqIoDATOraOEXfJd t2l5ZfcoFQMdThDWiU/kTNh1+o7RancHXmYsxnfctccSyI79tt7XbFMKVZgaAUHtuXoyHWAATys9 1AlgKSyP9YlyYmbgt08RF3KzHema+KlWYioDIyW4lYoobUbFv1+JQyzYM9uMv93Lws2dtXTtaYA5 zdIXimlMwo0lUfwdzEYjLFiCY0XQCyxlgm5hZSUr03DyYckjb9kGnKiqqmRq6+I4wQADAx3dcxr2 YCuzq6KvV8RxsqtVV4Lvi6hM2VpypigMcSwmewOY7p/uKCLScPBvO1NwDRS2ZPOG7zHjXBDnOnHU 1D5RMGlFXnL6gqAzO4HF1jSQtEJjIUbOdm+4La/dSYNfic3odGHrwzDatVOVK+hs833AIdEV6OeI cdZDdJViTHC4UOTQmblsCrzhRAZLggROVCp+upnK2Ih3TSQ5S2VFRf8AFaBIbczWGA6LHJUoXG6G Z6mxNStDIHlllqJas9J4iyBZBR2xCNZ2ZSmpqcwrgIjaiBTRd3FcbZrR5VA9J2Wxk2SpRxP/2Q== "
       width="166.76129"
       height="105.15889"
       preserveAspectRatio="none"
       id="image861"
       x="-38.548405"
       y="101.40983"
       style="display:none"
       inkscape:label="Cat_Reference" />
    <image
       xlink:href="data:image/png;base64,iVBORw0KGgoAAAANSUhEUgAAAQAAAAEACAYAAABccqhmAAAABHNCSVQICAgIfAhkiAAAAAlwSFlz AAAOxAAADsQBlSsOGwAAABl0RVh0U29mdHdhcmUAd3d3Lmlua3NjYXBlLm9yZ5vuPBoAACAASURB VHic7Z13fFRV+v8/585MZiaZmfTeSSOEhC4dKZIogqtrXde2FiwrqwiI7q775ee6ayPYu65rR9C1 K1UU6RBKIEB6QhpJSJvUaff8/kBcViXJ3Hvu3Ely3v/weoV7nvMJzHnm3HOeAnA4HA6Hw+FwOBwO h8PhcDgcDofD4XA4HA6Hw+FwOBwOh8PhcDgcDofD4XA4HA6Hw+FwOBwOh8PxNojaAjjyWfFFlG+b zjdRoyEJIiUJIGIIEUkwBYJBEEKAUAD+AASA+J8eRX0A+P1oohMg9h9/3gZApASthKKRUjQRoIkK tImIaCQCqaSElou+PeVPTanu9vTvymELdwADiHvXpUfqBEcmpWQUCMmioCkAEgGEqSSpHkAFQIoI pYcJoYccou7w0xceq1NJD8dNuAPwUu7dkhCgsftMhkCngGIygFEAQtTW1R8I0EgpDhGCnS5B3OFD 6c7H55a1qa2L80u4A/ASHvgyLtCp95kLSmZTYCqAEQAEtXUxQgRoAaFkm0joFlHn3Pj0rIpWtUVx uANQlcXrkjM0AuZTSi4AwfkAdGpr8hAugBykwCZC8KV5e9GOFSsgqi1qKMIdgIdZvC45gwjC9QT0 egBRauvxEmoo8DEhZG3uBUXbQUDVFjRU4A7AAyxel3qeoME1oPQKALFq6/FmKHCCgK4VoVn9VHbh PrX1DHa4A1CI5RuH+TtF7dUg9E4Ao9XWMxAhwDGAvqUTtK8/esHxJrX1DEa4A2DMsnWp06mAhRT0 CgAGtfUMEroJpWsJ0bz6ZHbhdrXFDCa4A2DAihUQOiYnX0wJ+TOASWrrGeQcoIQ8bdFGvb9i1ndO tcUMdLgDkMH9n6WZXUbxZoAuBki82nqGGBUE9GWnzvkKv1KUDncAErj/szSzyyDeA4IlAALU1jPE aQZIbrdO9+yLswo61BYz0OAOwA1WfBHl2673uw3AgwDC1dbD+R+aCOiTJlvXcysW1HapLWagwB1A P1i4b5zO3GK9AxR/AV/43k4dKH3E7BPzKj8j6BvuAPpg8aakCzWisIoC6Wpr6QO7VtDXmPXBTQH6 SFuAIYr4GyKEIGO0JkgfbfA3RPhpNXq9TmMw+QgGKhCN3qA1GwHA7urucoo2OwB0Oayddlen3drT 0NFqq++22uocLbY6V1PnCdJiqzV22JsDHKItApSa1P11+6QAFItzc4o3qi3Em+EO4Bzc/01amqgR V1FgntpafoZTr/GrDDMl1Q8LGE/j/UcFRZlHRAUZY/wFovGYiA5Hc+uJtoM1pc17Wstb82hDZ3mA zdmeSEH9+h7tUT4X4Fr6ZHZZsdpCvBHuAH7G4h0xRqHd928gdAm8IDafEOFUsDGucHjwdOeI0NkR iQFjU3Qao1cmCYnUhRprQfXhho21x5u2ig2dpVFO0R6nti4AdhA8YdY6/rFiVkWP2mK8Ce4AzmLJ xtRpoPQ1AMPV0kCALn99ZNnIsDmOsZG/iY+1ZAYR4pXrvV9YbfWNe2o/Kcqr/UTb2F2RBkrVuzWh KCUQFq7MKfxWNQ1eBncAOJ17L9i1TxBCboUK/yaECK3x/qPLpsVebxoZNjdZK/gM3BXfCyJ1uYqa dxRurXyztbR5V6KLOiNVkEEBvKIlrgd4jQLuALB0U+oFVKT/BhDtyXkJEdoSAsYWnh/3h6ARobOT Pfn+7g1QUJQ07zy+peLVhpLm3WkidXn6dqWaUOHGob4bGLIOYOG+cTpLU/tfKKEPwYOFN/x8Astm xP3BNiPuxuE6jXHI/vufDaUijp76tvibkqesJzuKs+C5sxdKgeccTnr/c/NKbB6a06sYkh/AxeuS MwSBvIfTZbYURyCapsyw7NKLkhenhvgm8MjBXrDaG5rXlzxTsLf2kySROj1VL+EAKLk2N6fouIfm 8xqGnAO4b33yzYSQ5wEYlZ5LpzFWz4y/pX524sLROsEwtPb4MhGpS9xR9cHBDWVP+3Y5rIofylKg i1ByV25O0VtKz+VNDBkHsOjrZL2PjjwLioVKz2X2CSmcn3K/ZmzkJckD+QTfWyhq2nZ07dG/9LT0 1I1VfDJCXjS36BavuKrArvhcXsCQcACLN6dGCy76ERRO1fXVWY5fNnyFbkzE/CQl5xmqnGjLL33/ yJKGU12Vk6DgZ5eA7qMa1xW5c8orlZrDWxj0DmDZutTpokA/goK18w1ac+Vv0//mHBNxSRIZ/P+k qlPSvOvoe4fvs7fbTylXaYmSkwIhVwz2AiSD+tO6ZH3y70HIGwD0StgXBO3Ji5OX1c+Iu3EU3+p7 nrzaTw6tPf6Qv9NlT1Boih5KyU2rcoo+VMi+6gxaB7BkfcpfQfAwlPkd7VnhFx2+JuOxUT4ao1YB +5x+4qJO55dFj+/ZduLtdAoaqMAUFIT+OXduyWMK2FadQecAVmyZqe1w1DxPgduVsB9ojDp+86hX IiPNaf5K2OdIo9PR2vLa/j8cqrYWnA8lPtcE/2oPtNzx6vg8B3PbKjKoHMDiHTFGocPwMUAuYm1b IJrmy4Y/VD055tos1rY57DhU//Xh948sC3SJjhgFzH9h1jmuGkwJRYPGAdy1JcNkdDo+B6WzWNuO NKUevn3cv5NNPiGKxw5w5ONwdXf969Cd+4qbdkwD+yjPzYQaf7MyJ7+TsV1VGBQO4N4tCQEah89X AJ3C0i4hQvtFSffVzU5cmMrSLsczFDRsPvp2/qJABZKO9oqiz4VPXVjQzNiuxxnwDmDJltQQ6qTr CQXTIBF/ffjhP038KNZfH85DdwcwXY5W6/N7rz7a0FnOOAaE5PkIQs5Ab1gyoB3A6W9+3bcAxjA0 K06IuvzIlSMeyRpqGXqDmY1lz29fX/rsWDANASd5WuKcM5DTigesA1jxRZSv1eC3jlBMZ2WTEKH1 +sxnWrLCcxJZ2eR4D5VtB4te3Pt7o4s62PVnpNjZ7eOTPVBLkg9IB7B4R4xR6PT9iuWBn68uoHDx pP9EBBpi+PXeIKbT0dr+1K5Lilp7To5jZpRik9nHsWAg3g4MOAewcN84nbm57TOWV30xlpGH757w QYZW0PNwviEApaL45sE7fzh6asv5DM1+YdZF/3aglSIfcB94S7P1OZaLPyPsgiP3nPdRJl/8QwdC BOHmMa+cnz1s0XYArAJ7FlgdtS8zsuUxBtQp130bUh4CsIyROfuClOUFlw5/KJOQAbcR4jAgKWhi XIQ5NT+/fp0vGHRyJsDYqdcH9ex4p3nAJBANmE/+j4k974CFZkI6bhn1yqn00JkJsm1xBjxV1iPF z+25wl+kIouMUUoIvWbl3JI1DGwpzoBwAEvWp8wAwQYwyOojEKx3jH/bmhR4nhKhopwBSkNnac3K nfMhUheL4rA9lIpzVuWU7mBgS1G83gHcuy49UiM48wDIjuYiRGO9a/y73YkB43h/P84vaO6uaXhi R3aXU3QkMDBXL2rIuKfmFNUwsKUYXu0AFn2drPfRku8BTJRrSyDaU/dO/JhEmdODpYzfU7MWNlcn wv2SEeaXhACDGiXtOUpjtdU3PLp9rtXh6kmWa4uCbu8I8p/lzRmEXp3L/mMNPwaLX9O0ZNLnNNyU HCLVxtclq9Bh/2/Up0FrQpjfsJ8cQrhfMsJNSQgyxIAXBxm4WPThYQ9O3Sj8c9vsCrk7AQIy1dTc tgrAIjbq2OO1O4Cl65NvoYS8LtcOIUL7ovM+7IizjJL1lf3QdxPQ7eg74lMnGBDmNwxhfsMQYUpF pCkVUebhCDB4qsI1hwXN3dV1j22fK7I5E6A35GaXvCPfDnu80gEs2ZQ8AiLZB5lx2wSk57ax/2pO DZ4qe/X9+dtRsLu6JY83aM2IMKUgwpSCcL9kxFhGIsaSAZ0g+/aJoxANXWUnVu64WC+3a9GPJcfH eWPfAa9zAD++9++G/KYdjusyn64bHTGPSXfaBzaPhFNkWylaQ7QI8xuGKHM6Is3DEWUajhhLBnx1 PAHRW6iyHil+ds/lEZRSszxLJM/cqpvibeXGve4MQK/FPymDjj0LUh8sGh0xL4OFJgBwUfYRni7q RF1HEeo6ioC6z376ebAxDrH+mYi1ZCHOPwvR5hHw0fBaJGoQaxmZcn3m0/lv59+TDlkty+g4a4Dj YQAPsNLGAq/aAfzYqHM9ZIYojw6fd/C6rKeZlYwWqQv3b0pnZc5tBKJBqG/iT68NMZaRiLVkQiv4 qKZpqLG+9JltG8temCbTjEioMNebGpJ6jQP4Mbf/CGR26Q33Sy5cOvnLNJYn8U7Rhgc2ZzKzxwKt oEe0ecSPO4VMxFmyEOKXAN6XQDneOHD71mOntsyQaabK7qQjn5tXYmUiSiZe8wog2LVPgMhb/Hqt X/Wi8z5MYX0N56IupvZY4BRtqGw7gMq2Az/9zKA1IdaShcSAcUgMHIeEgLH8kJEhN49+adojP8zY 22ZrmCDDTKyPTngUwB9Z6ZKDV3xdLN2YPJNS8i1k6CEgzj9OWN2ZEDCGeT5/t6MND30n5/9cHbSC D2IsI5HgPwaJgeOQGDABvjpe7kAOnY7W1oe3Tu2QWXVYBCHn584t2sZMmERUdwA/nvofBCC7Aywh AqLNI5ASNAWpwVMwLGACNIL8VvMd9ias+H6ybDveQLAxFinBU5ASNAUpQZP5jYMEKtsOFT2758oY AvhKNkJQaNY6RqtdRET1dODpN4Q8AoJL2VijsNoaUNGah7y6T7Gt6h2csOaj29kOP10AjDqLJKvd znZsrXyTjUSV6XZaUW0tQH79OnxX+QaONGxAfWcpnKIdZn0IdIIiXdQGFQGGiGCA7i5r2SPnijnE IWrojneatzATJgFVdwD3f5OW5tKIhyHreqX/hPolYkTILKSHzERi4HhoSP+OQJq7a/DPbczbDXgd AtEg1pKFtOBpSA2eijj/UeCFUc/N49tzdjV2yao2bBM0NOPJOSWlzES5iaoOYMmGlC8BXKzG3Aat GWnB05EeOhPDg2fA5BN0zmdPdVXgse3ZHlTnHRi0ZiQHTURq8DSkBU9DsJFJTNWgodPR2rbi+8ld lLqkh5kT+mnu3JLLGMpyb3q1Jv7xzn+jWvOfzZmzgxEhszAmYj5C/f63KHB9Zwme3DFPJXXeQ7Ax Fumhs5AROhvDAs/r9w5qMHOscUv+GwdvHwkZsSsCaM6T2SUbGMrqN6o4gIX7xukszdZDFFAvuqYX oszpGBl2ATLDshFpSkNt+3Gs2nWJ2rK8Cl+dP9KCZyAjdDbSQqbDqJV2vjIYeHnfjVtLWnbKiA+g h0+0loxZexU8ft+sigNYsjFlESieVWNudzkdljsSB09+rbYUr0UgGgwLnICs8AuRGZYNs4/krOsB id3V3fXQd+ObZV4N3pmbXezxoqIedwBL12f5UdJdCoBX5RmEECIg3n80RoVfhFHh82DRh6otySMc qP/y0Hv598nJYakTTd1JT02plp5yKgGPH/FOvsGyGGB17cfxPihae+pQ2PQDfjjxFkpb9sAh9iDI GDOoE5oiTakRh+q/2dXpaJa6CzATm7Zp57vNu5gK6wOP7gDu/yzN7DKKZQCG1h6RA42gQ0bIbEyI vhxpwdMH5fWi1d7Q/PDW6QIolRpdVU+oMcmTrcc9+r8w8eag5USlaz+OulAqor6zFAdOfoHdNWvQ 0lMHf0P4oDov0Gv8jB22pj1V1sPxEk2YCHFYPdlXwGM7gEVfJ1t8tKQSAI895fxEQsBYTIq+GqMj Lh4U6c0u0eH885YxNS7RLtUJNBFqjPfULsBjO4DpN4bcDYDfpXH+h9aeOhxp3IRdNR+i09GKCFMy 9Fo/tWVJRiAaIcAQXlnQuDlCoglfAmf9jnebdzMVdg48sgNYsWWmtt1RXQIQqV6RM0TQCnqMjbwE 0+NuRKQpVW05kvl/308+1G5vknorUH6itTjFE3EBHqlf3e6ouZIvfk5/cIo27KlZi9yd8/Hq/j+g su2g2pIkcW1mrpysqsTYgOTfMhPTC54qYH+vh+bhDCKKmrbjuT1X4ZW8m1DTflRtOW6REjRluEUf vl/qeAG4n6Wec6H4GcCydanTKcFflZ6HM3hp7q7C7po1ONVVgSjz8AFT1CTaMqJrX+0n584y6xUS Ne360E073mmqYqvqf1F8B0AFLFR6Ds7gh1IR++s+xxPbL8Rnhf+U1aPBUyQHTkoK0Ece6PvJX0eE eBtLPb+GooeAD3wZF+jw0ddAZoMPjvejFfQwas0/RfvZXF3otDeDgioyX7AxDtdkPIbEwPGK2GdF YdMPx17bf4ukpDcKdIk6R/TTsypaWes6g6L5nA69/jpQvvgHE4QIiPBLQVLQRMRZshDqNwyhvgkw aE2/eFakLnQ6WtDQWYoa61HUtB9FUdN2tNtPydbR1H0CL+Vdj0uHP4QpMdfKtqcUacHT0w0a07Ee V4fbToAAvhq79loALyogDYDSVYEpvc0Lyg5yGBDvPwZjIudjVPhF/Y7eE4gGZp8QmH1CkBR4uscr pSKqrEdwuGED9tX+R5YzEKkL/zm2As3d1Zif4pEzM0nkJN/T8VnhP6QNJuRWKOgAFFudi9elnicI 1CPBDBxlEIgGo8LnYWb8zYi2MGuy9BMu0YHDDRvxbcUrqG0/JsvWzIRbvdYJiNQlPrg5s95FnZIq BwkiHffkhSWSbxR6Q7FbgKk3Bi8BMDhK6Q5B0kNm4ubRL2NSzNWw6MMUmUMgGkSYUjAp+mqE+yWh pv0Yup19d2D+NSpa90OEC8lBckr0KQMhAmntqTlY035UUiwMFYh15zvNilTPUuYWgIKA0isUsc1R FIs+FLeMeRW3jHn1F6XRlIIQAaMjLsbSKV9iZvwtkjMFN5W9iE3lLzFWx4ac5MUjATgkDaa4ElSZ 3boiO4BlU9OmUtDFStjmKMfIsLm4dezriDKrU6lNQ7RIDZ6G1OBpKGrahh5nh9s2Spt3I8Q3HpHm NAUUSkev8TPuq/vsQLezTUqr+oCppcHf7Hi3uYa1LkV2AC6IVylhl6MMBATZwxbhxlHPw08XqLYc xPuPxr0T/yPpio+CYs3Rv6DGWqCAMnnkDPuj5PL3VCBXs9RyBvYOgIIQgG//BwgC0eDqkY8jO2mR VzUWNfkE446xbyErLMftsU7Rhg8KlsMlSttxK8WYyEsyBSI0SBpM6RVKvAYwN7hkfdI4EGEfa7sc 9ghEg2syHsfYSGlZ2iJ1oab9KGqsR3GqqwIdjmY4XKc7XRm0Jpj1oYjwS0G0eYTk8wSRuvD+kSWS irLOHfZH5CTdI2lepXg574YfSpp3TZcyVgDGPJldzDQ7SoE4AOEi9jY5SnBF+t/dXvyUiihs2oa8 us9w9NS3sDn7V7ci0BCFjNA5mBhzFSJN/X8/F4gG147MRZfDiqIm93ppbql4DeOjLvOqhiazExaG lEgs+ycSeiEApg6A+SsAPS2S4+WcH/8HnBfd/zc1Cor9dZ/jyZ3z8PqBW3Hg5Bf9XvwA0NJTi21V 7yB35wK8nHcDKlr7f60tEA1uyHoG4X7J/R4DAE7Rjq+KnnRrjNKkBE1J1xBtvaTBlDD/cmXqAB74 Mi6QgExkaZPDnuSgSbjYjaCZ+s5SPL/narx/ZCkaOstkz1/SvAvP770G7x1egk5HS7/GGLRm3DT6 RbcrC+c3rHfL2SgNIQISgyZI7QU4efnGYUxTIZk6AKfeZy6UDi/myEKv9cM1GY/1+659b+3HeHr3 bxUpzHHg5BdYuWM+ylvz+vV8qG8C5qcud3uedaVPuz1GSWbE3iS1jZLOCc0cllrYvgJQMpupPQ5z Lk5eigBD/66i15U8hQ8LHoRDwdTbdnsjXs67AXl1n/Xr+ckxv3M72q+keRfKWvZKkacIaSHT0wkh 7ZIGU8p0jTF1ABR0Ckt7HLZEm0dgcszv+vXsV8UrPRZV5xIdWF2wHHtrP+7zWQKC36T9xe1owQ1l z0mVxxwN0WqCjDHHpY0mU1lqYeYA7t2SEAAQ9hkjHGbkJP0JhPT9X/7DibewpeJVDyj6L5SKWHv0 ryhs+qHPZyNNaRgf5V7JvJLmXV4VHDQ6fJ5T4tDMRV8nM+vEyswBaOw+k1na47Al1jISI0L73j2W t+zDF0WPeUDRLxGpC+/mL0ZrT22fz85OWNgvZ3Y2P5x4S6o05oyPujxJ4lCNQQtmGU/sFqzAt//e zJTY6/p8xuHqxuqCByBSj3ep/olupxWrCx7os5JQiG88RoS49zp8sP5rtNsb5chjRqhvQphW0EqK 7RchMHsNYHdiT3nqr7di1FowOrzvK+TN5S+jqfuE7PkiTCmI8x+NUN94GLX+EOFCl6MNJzuKUN6a h7aek72OL2nehUMnv8HoiHm9Pjc19loUNG7qty6naMfOqtXITlrU7zFKEmxMrKrvLI52fyRlttaY OQACZClT/Y0jl8zwHOj6uD/vsDfJ2iILRIMJUb/F9LibEGFKOedzlIooa92HzeUvoajp3C3wvinJ RVZ4Tq+HfclBk+GrC0CXo/8l83ZWf4DZibd7RRuy9JAZYn1nsZShWaw0MHkFuHddeiQFhkYj+AHI 8JAZfT6zs/oD2Fxdkuxb9GH444T3ceWIf/S6+IHTgTBJgedh4dg38buRT0AnGH71uabuKhxu2NCr LYFoMDLsAre0tttP4eDJr9waoxSZYXOltg8Lv2dTYjgLDUwcgEbjYOaROGzREC1Sg3p/ZaRUxO6a tZLsG7Qm3DHubcT7j3F77LjIS/H7zNxzZiHuql7dp4204Gluz+sth4Gx/qMSCSDJ62pdWiZrjs0h ICVSe6BxFCbClPqrFXvP5oT1EFp76iTZn5N4B8L8hkkaC5wuQjIybO6v/l1pyx502Jt7HS/F8dS0 H0WV9bDb41gjEA3Ra80VUsZSQjKZaGBhBCAj2djhsKY/lXEKT7mXZXc2Wf04XOyLcx32idSFkuad vY4NMETCX+/+bnhPzUduj1GCUN+E/iVD/AwC6k0OgHpX/SXOT0Sahvf5jJxvQz9dgOSx/7Vx7u5Z FW19N9aRUmvg4Mmv4BB73B7HmviAMdLOzimYrDlWcQAJjOxwGNOfb8e6jiLJ9uWMPUNvJcHrO/o+ JQ8wuF9tu9tpxZEGRQrtukVy4CRp2X2EzZqT7QCWrs/yA78B8FpMPr33pqSgsoJjvqt4XfJYAHCI Pdhe9d45/76lH2cTUhwA4B2vAXEBWVKKhAJAxOIdMbK7bsl2AC7alQDe/sdr8e1ji253dsmqnVfQ uFly0pBLdGD1keW9Bh91O/ruE3Cuq8S+KGnZjeZu5oV23cLiExYs8SaACO2+kvoMnI1sB6DRkAS5 NjgDm3UlT+GDI/ejw97U7zH1nSV4Oe8GHKr/ptfnXLTvnBkNkRbPRqmIfXX/kTSWJRpBL+0KBpDd uEF2JCAVaTwI3wB4K2IfC0gjsAkGzav7FEcaN2JsxCUYFX4RYv2zoNf4/s8znY4WlLfsw/66z3Gk cVO/cg76E7FHJDYSAYB9tZ9g7rC7Va2IbNIFtLTaJFQJI1T2DkC+AxAQSngMsNfiFO29/r1W0MOo 8+/XVrsvbM5O7Kz+ADurP4BANLDow+Gr84dIXehytMBqc/+soa8zDADodiMU+Oc0d1fjRNtBSfEE rAgwxnRLcQAsom/l3wJQ9K9VLEcV2my9J94Apyv2skakLrT21KK2/RhOdhRJWvwAEGSM6fMZue3G pZQcZ0mIMU6UOlTu3LIdAAEJlmuDoxz9OUWPsXhvHFd/SohbbdJ6bZzhUP03oFTqGpRPgDFS0jsM IZC99mQ7AAr5IjjK0dRV2eczCSpuf/uiP+3B5MYiWG0NKGtVr5eNvz5cUsswIsr/8pX/CkD4K4A3 U9l2qM9nRoTOktyRV0l0GiOSAs/r9ZkuR6vkPIazOaTia4BFHy7tPp+IXvAKIIJpnXIOW052FPWZ 5mvyCXa70q4nyArL7vOOvz8Orj/kN6xXrRKSvz7MT8o4CiI7DpvFDkAv2wZHMUTqQlnLnj6fmxZ7 vQfUuMekmGv6fOb4qe+ZzNVhb+oz8UgpfHX+knYAFJBd1YRFLoD6pVU4vZJfv67PZ9JDZrrVs09p koMmITFgXJ/PHT+1ldmc+Q3rmdlyB62gl3YGAPlfvtwBDAEKGjf3Ge5LiIBL0h70kKLeEYgGF6cs 6/O5E22HmNQwPMPRxm9VuQ3QaqQ5AHiJA+CvAL/C8JAZXlF3DgC6HG04WN/3IVdK0BSMj7rMA4p6 Z2rs9Yi19J3uvqtmDdN5rbZGnLDmM7XZH3TER9IHhb8CeDEGrQn3TfocwwInqC0FQP/LYF2a9hBC 5OeYSCbaPALzUu7r87kuRxsOKVDbr6BhM3ObfaERfCR9iXrLKwDnVzhcvwEGrQl3jn8XV6T/HUYt s2Yukqi2Hum1Cu8ZDFoTbh79Cow6z1/umH1CceOoF/qV3fdd5euSi5j2hjtlxgcDLBxA78HmQxQX dWJX9YcgIJgUczXun/oNxkVeqqqmL4sf79dVV5jfMNw+9k34etAJ+OkCcfu4NxFk7LtMfoe9Gdur 3lVER31nKRo7yxWxfS5cot0mZRwFJI07GxYOQLaIwcrO6tU/Hb6ZfULxu5FP4A+jX4K/QWo1aHnU th/Hvtr+pb/GWEbi9nFvSS624Q4hvgm4e8JqRJhS+/X8l8WPw+bsVExPQaNnXwMc1C7pS5Qw+PLl OwAFabc3/uJqKSN0Du6f/A2mxl7ndm87FnxR/ESfnXnOEG0egXsmfozUYKYNaf+HrLAc/Om8tf2u 61fUtA37aj9RTA8AHDv1naL2f47TZZNakcUrdgDcAfTCr21V9Vo/XDb8b7h7wmpE9vNbjxXdjrZ+ 9d47g9knBLeN/ReuHPEPmHzYpX0EGCLx+8xVuGHUc/1+1ehytGLt0b8y03AuKtoOKLrD+DlOUZoD 8I5XAMpfAXqjonU/atqP/urfxfuPxuJJn+HS4Q959NCtuHkHNpQ+2+/n1kvqFAAAHVNJREFUCQgm Rl+JB6dtxrzkJbJeC4KNcfhN2l+wfOp6jImY3+9xInXh3cOL0dKPzsFycYkOlLbsVnyeM3Q52rql jCMMHIDsDJDJNwbfSADlXxQHMCJ1IiN0zq/+HSEC4vxHYWL0lehxtqOm/RjQz29nOZS37EOwbxyi zH2XDT+DVtAhMXA8psXdgPiAMTBoTOhxtvdaTEQgGkSYUjEmYj4uTlmKBakPID5gjNtlvD4vegwH Tn7h1hg5+OoCkB5yvkfmqrIeqTp48ku3D4YIaPmOd5pfkzO3/HpQFPKqMQwBDtR9ifkp9/daoNNP F4gr0v+OydHX4JPCv6Oidb+imigo1h79C4xaC0aEznJrrEA0GB48A8ODT/cctDk70dBVjnZb40+1 9n00RgQaohBojPlFaTB32VD6HH448W9ZNtylqEl6sxR3abOdlLQDABVkrz3ZDoAA/a8EOURxiD3Y U/MRZibc2uez0ZYM/HHCBzhQ9wW+Kn4SbVJqxfUTp2jHW/l34/rMp8/Znqs/6LV+iFWoqMjGshew oew5RWz3RmNXBZq7a/p1LSkXq61e2hmAQGWvPRZnAHwH0A92VL/f73RTAoKxkZfg/qnrMTtB2VbW LtGBt/P/hG0n3lZsDim4RAfWHP0z1pc+o5qGitY8j8zT2l0nLQ+ZwdqTXxGIgRcaCjR3V7uduqrX +GJeyhIsnfwVRobNVaxyrUhd+LTwEXxY8IBXtMtq6zmJV/bfpHrjjsq2gx6Zp6mrStJOnDLYfbMo CCK9rcwQY5vE6LUQ33jcNOoFLDpvjaKFO/bW/ge5Oy9BeYt65bEOnPwSK3ctQFnLXtU0nMFTDqDZ Vi2pHgCB/LUn3wEIpO+icxwAQHHTdllhpnH+o3DHuLdx29g3EG3JYKjsv5zqqsCLeddh7dG/Knr+ 8HPqOgrx2v5b8N7h+5iUKGeB1UO/f6e9VVJlH1EQK+TOLb8vAKHloLwxSH+goNhe9S4uHf6QLDtp wdORGjwN+fXfYF3J02jsqmAj8EcoFbG7Zg32132OqbG/x/S4GxULX65tP46tlf9C3snPVa3M+3Mi TWm4LuspxeehoHCItkgpK0hwaSrkzi975a74Isq3Xe/XwcLWUMCgNeGh6T9Ar5VUBu4XiNSFPTUf YWPZ84p9YwtEg/SQWZgYfQVSgqdI7sV3hi5HG46e2oK9NR97NOCmv0yJ/T0uSX0AWkH5UhdWe33T w99PlxJiSc06h++KWRWyDm2YLNolG1JOAui7DzUHAPDb4f+HKbG/Z2rzTJfd7yv+Javbb1/oBANS gicjKXASos3piDan9xnF2G4/hWprAara8lHWuhdlLXtVK8DZGwGGSFwx4u8/xTd4gsMNG/LfOnR3 loShdbnZxbI7urBpDAdUgDuAfrO96j1Mjr2W6am+TjBgZvwtmBZ7HfbUfozvK95AU3cVM/tncIg9 ONq4BUcbt/z0M6POHxafEPj5BEFDTle3coo2tNub0NpTB6fo3dHiBAQToq/AJakPwKA1e3Tu0pY9 VmkjCZOcZUYOgBQBdCIbW4Of+s4S5NV+qkj5La2gx5SYazEp+mocqv8a35a/irqOQubznE23o+30 wV1nqaLzKEGobwIuT39YtbLolZIjPqm8big/wsQBUELzeYNQ91hdsBxbT7yJOYl3Iiv8QuZ3/ALR YEzEAoyJWIDy1jxsKH0WxSqVvfZGNESLGfE3IydpkUfe9c9FY1dFoJRxhFAmDRGYOAANpfkiPwN0 m9r243gn/x7EWEZi7rA/YkTobEWCfRIDxuH2cW+hvGUftlS+jmOnvvOqE3dPkx4yE/NTlyPcL0lV HSJ1UZuzo3+FEH4OEY6w0MDEAThE3WGN0Hsfes65qbYewZsH70SkKRXnJ9yKsRELFGnVlRg4HomB 42G1NSCv7lNsr3ofrR5Ir/UWwv2SMD91OdJDZqotBQBQ2XawnALDJA12uZiUL2b2dbN0Q0oDi37l HCDSlIoLhv0RWWE5ilYNEqkLRxu/xc7q1Shq3j5odwUBhihkD/sjJkRdrkoVpnPxedGj27dWviml 3FJ9bnYxk8AMVrcAoBSHQHABK3tDmbqOIryTfw9C/RIxM/5WjIv8jSIJQQLRYGTYXIwMm4um7irs rl6DvbUfo90+OPK7wv2SMDPhNoyNvMTt+gOeoPDUVkneiAJsGiKCQUGQM0y9ITgFgGcqKAwRuhyt ONr4LXbXrIUIJyJMqdApdGDlq/NHSvAUTI+/EQn+Y6DV+KClp9YrkoPcJdaSicuG/w2Xpj2EaMsI CF70rX82nxX+Q6CgbteLFyh5d8e7Td+x0MDsFWDxpqQLBVH4hpU9zi/Ra/0wKfpqzIi7ySOVhUXq QknzLuQ3rMORho3osDcrPqdUdBojRoVfiEnRVyMhYKzacvqksau84fHtOWGSBlNk5+YUb2Shg5kD WL5xmL+TaprBm40ojkbQYUzEfMyIuwlR5nSPzHm6y/Be5DesR+GprYoEGbmLQDRICZqC0RHzkBmW 7fEgHjl8VbJy55byVydLGOrSdAuBT/ymsJ2FDqZ3TkvWpxwCgZSwRo5EEgPHY1rs9cgMy1bk5uBc NHdXo7h5B4qbd6Ki9YDHbhP8dIFIDZ6K4SEzkBY8AyafIKb2ba4uOFw9zO3+nH9uu2Bfc/eJ8RKG HsjNLma2xWF7MkKwA+AOwJOUt+xDecs+BBgiMSXmWkyMuQp+OkmxJW4RZIzBxOirMDH6KgA/NtZs O4gq62Gc7CjByY4iNPdUy7pZ0Ap6hPkNQ5R5OBL8xyIhYAzC/ZIVOcnvcrRiY9mL2FW9GiAED07d BItemUstF3W6WnqqJPVip6B993dzA6YOgIJ+S0DuYGmT0z9ae+rwdUkuNpQ9j7GRCzAt9nqPvR4A gEUf+tONwhmcog1N3VVo7alDa08d2m2nYHN1ocdphd3VDQoKH83pWhg6wQh/fRhM+hBYfEIR4huP QEOU4td2LtGBbVXvYlP5i/9Th8Dm6oRSt9qFp7Yeo5RKKqIoQPiWpRamDkDUOTdqHDona7uc/uMU bdhT8xH21HyExMDxmBR9NbLCc2Sn8EpBK+gR7peMcL9kj8/dFy7RgT21H+Hb8ld+0WtApzEiyKBc MdDvK9+UmAAEh80pMu1bxjzudMmGlB8ATGNtlyMdg9aMMRHzcV70FYi1ZKotR1XOOMhvK15Fa0/d rz6TEjQFt4/7tyLzUypi+eaMBpG6pNwAfJebXexeDfc+YP5NTQnWEcodgDfR42zHzuoPsLP6A4T7 JWF81GWYEHU501Zf3k6HvQl7az/GthPv9Fk4JSlIucTWwqZtR0XqGiFlLAFdx1oPcwegcdFvRIE8 wtouhw31naX4qngl1pc+i4zQOZgQfTlSg6Z69AbBk1Rbj2DbibdxoP6rnzo190VyoHIOYEvla5Ir +YqiwNwBsE89oyBLNqZUAVC+owKHCf6GCIwOvwijI+YPileELkcr9td9jj21H6O2/ZhbY311AVhx /k5FHKJIXeIDm0Y2iXC5fbpIgROr5hYngLDtG8f+sI6A0vVYSwjuZW6bowhtPSfxfeWb+L7yTQQb 4zA6Yh5Ghc9zq2+g2rhEB4qat2Nf7ScoaNwMpyitafWIkJmK7Yby6j7JF+EaLWUsAV3LevEDCp3W Cxq6hoqEO4ABSFP3CWwufxmby19GoCEKaSHTMSJkFtJCZnhdQo1D7EFx0w4cql+HgsbN6HHKD46T 0yKtLzaWvSg9Z14QPmQo5SeUqeJBQe7bmFJBgDhF7HM8jq/OH8NDzkdK0BSkBE2W1SJcKhQU9R0l KG3Zg6KmbShq2s40WcmgNeP/ZmyDTiOpT0evWO0NLQ9/P80MaV+65blzi5MGzA4ABJRsoGsBskQR +xyP0+Vow/66z7G/7nMAp2vppQRNwbDACYj1z0Swkb2vd1EnGjvLUNayF6Ute1DasgcdduU60Y2N vESRxQ8A60uePgJgupSxFGSNEosfUDBgR4RmtQCRO4BBSmNXBRq7KrCj+n0Apw/P4ixZiLFkIMwv CcG+sQg2xvXrqtHm6kJbz0k0dJahvrMEdR2FqO8oQUNXWb9P7lkwJeZaRey6qFPcV/up5GgoDehq lnrORtFCfks2pBwEMErJOTjejV7rB5MuCHqtCVrBB3qNH1zUAburG92ONrTbT8Hu6lZbJpKDJuGO ccp0SN564s29nxc+OkHKWEqwf9Xc4nGsNZ1B0VMdQsjrlFLPN3fneA02Zydszk61ZfTJ+fE3K2Z7 Q+lzkvOUCcVrLLX8HEUzLZxa+7sA1HfvHE4vZIZlK1Yo9Fjjd4d7nB2S7lMp0KUlrg9YazobRR3A 07MqWgmla5Wcg8ORQ2LgePxu5JOK2V977CHJPdAIsObxuWWKtkpWvHoPFQRFtzAcjlTGR12G28f+ +6eUZNYUNW0vtNrqJQX+AAAR6Kss9fwaijuA3LlF2wB4XwtYzpDFoDXhivS/45qMxxWptnyG1QX3 d8kYvnflBSWKt3LySGgXpeQpQpS7yuBw+ktWWA4WpD2AQAXz/QGgqGn7cautcYxkA5Q+wVDOOfGI A7D4RH3c7qipAJDgifk4nJ8TbR6BS9L+jKTA8zwy3/tHlkhLRgAAitITbSWfMJRzTjxSwXfFrO+c hNBnPDEXh3M2/vpwXDXin7h34n88tvh31XyY12FvllwbkxLy1NqrIPnw0B08lt0hdGnecBnFhwAo W26VwwEQbIzFrISFGB91maLv+T/HJTocnxx7WHIxQQI0mm0db7LU1Bseq+F/uo45yfXUfJyhSYQp BdeMfALLp27ApJirPbr4AeA/hQ/vdFGH5MQIkeCJFQtq5RweuoVH8zu7dbpnfR32e3kTUQ5rEgPH 4/y4m5EROlu1BqBWe33Tnuo10kPfKTlpsXW8yFBSnyiaC/Br3LcxZSmhUC7ygjNkEIgGw0NmYE7i HYj3l37gzorHt1+4u7GrTHI9MUJxz8qc4mdZauoLj1d4sGgdz7c7dPeClwzjSMSgNWF81G8xM/5m BBii1JYDANhf90WenMUPoNZl7vZ40JzHdwAAsGR98l0g5AU15uYMXGItI3Fe9FUYF/kbxaL3pGB3 dXf9dcvYFpG6JH+pEUIWrpxb5HEHoEqNJ7NPzKvtjpq7AGSoMT9n4OCr88fYyN9gYvSViDRJ6qal OK8fuG2fSF0zZJg4VNlS9C9mgtxAlR0AACxZnzIXBBvUmp/jvWgEHVICJ2N81GUYGTbX4yf57pBf v+7w2/l/GgkZa4kQOmvl3JLv2KlyY241Jj3Dkg0pnwG4RE0NHO/AR2NEctAkZIVfhJGhcwZEq+8u R2vbiu8nd4rUJecg4qPc7OIrmYlyE1XLvApwLRWhuRCA97p4jmIEGaORHjITGaEXICnwPGgEndqS 3OLZ3VceF6lLzsFfD6HC/cwESUDVHQAALF2f8ggl+IvaOjjKE2yMw7DACUgKmoikwAmKJ+QoyTcl T23fXP7SVHlW6P/lZpc8zEaRNFQv9G7ycTzS7tBdDmDgdKHg9ImGaBFuSkGcfxaGBZxe9P76cLVl MaGsNa94c/lLcuv0FZhb9Y8xESQD1XcAALBsXep0UaDfwYOhyWcw6vzhq7XAoLPAqDWDnCWBQkSP swM2Zwe6nVZ0OdogUo/kaAwotIIekaZUxFgyEG3OQLQlA5GmVK8+vJNKp6Ol9f99P6VTzpUfAJEI dJon8v37wiscAAAs2ZDyEoA7lJwj1DcBKcFTEWUajghTCiJMqTBoTW7ZsDk70W4/hXZbI1ptJ2G1 NaLNdhJWWwPaen7809YAp2hT6LdQD6POH6G+CQj1TUSobwJCfBMQbkpCuF/yoG0uejaUiuLff5hx wGprkPXtT0GfX5VdsoiVLjmo/gpwBi1xPeCkmvkAYljaNWotmBh9JSZEX4FwvyTZ9vRaP+i1fgjx je/1uS5HK6y2BrT01P3kHM44itM/q0eXQ9Fyb27jpwuERR+KAEMkzPowBOgjEGiMRphfIkJ8E+Cn C1Rboqq8cXDhNqutQc59PwBaqe3W/JmNIvl4zQ4AAJauT5tNibgRDF4FNESL8xNuwayE22DUWhio Y49D7PnRMTTAamtAp6MFXfbW0386zvzZBoerGw7Rhm5nOxyunl/dXei1fhDO6t3nq7VAK/jAoDXD qLXAoDOd/lNrgVF3+mdGrT/8DeGw6MPgrw+DVtB78tcfUHxdsmr7t+Uvyzz0gwsUs3NzircyEcUA r3IAALBkY8oToFgm187E6KvKrxzxSCILTd6IU7TxBesh9p/8Iu/9w0tGQfaOmf4zN7vEq2681Mmb 7AVzi89fKcF+uXZ216yJ21/3WSULTd4IX/yeobLtUNEHR5amQv7r8p72IP8VDCQxxet2AABw78aU dIFiHwF8ZRkixPGHUS/WZ4TOYXquwBka1HeWVubunGcQKZV7f9lJBc3YVRccL2IijCFetwMAgKfn Fh8jlC6UbYhS3ZuH7gqobD1Qy0AWZwjR0l1Tt2rXfA2DxQ9KyF3euPgBL3UAAJCbU/IeCJFfHYVS 0wv7rjXUtB9rZCCLMwSw2upPPbYjx+4SXSx2js+smlukTNdRBnitAwAAc4tuMShkB0uI1BX0zK7f aqush5VrLs8ZFFht9Q2Pbp/b6hLtvd/z9o+t7UEW2QfaSuKVZwBns2xLQoTo0OUBkF36hUCw3jX+ 3Y7EwPHeUUaG41U0d1fVPrHjQrtTdCTINkbJSQ0h457ILvTq10+v3gEAwJOzKk4KEK4C0CPXFoVo eTHvOnNpy+4qBtI4g4iGzpLqx7bngMniB7oJ6KXevviBAeAAAODJ7MLtlJKbAFC5tigVzS/vuz74 4MmvK2QL4wwKKtsOFT25Y76PSJ0sdoYiJbh+ZU7xgOiHOWACuHe+21Qw9boQOwjmMDCny29YZ6bA seSgiWEM7HEGKIdOfrP/tQO3xAGUUcMasmxVdvEbbGwpj9efAfycJRtTXwCld7GylxE25/BNWS9k qlVLnqMe60uf2bax7IWJAJhUIqGUvrYqp0T+9bUHGXCferM26h4AX7CyV9CwOfOZPZcftru6RVY2 Od4NpaL4+oFbt24se2EaGC1+EPppVVvJnUxseZABtwMAgBVrMnw6/B2fUUIvZGVTr/WtWjRhrSXC lOLPyibH++h0tLTk7lxQJjel93+g2GT2cSxYMatC9kG1pxmQDgAAVnwR5duu9/sGgMz0zP9CiNBx zYjHTo6LujSZlU2O91DRtr/wxb3X+YrUGcvMKMXObh+f7BdnFXQws+lBBqwDAIDlG4f5O6l2M0DZ eXNAnBD12/wrR/xj9FAocjFU+LGG3zgABoZm99qd9ILn5pVYGdr0KAPaAQDAg5uGB9tFcT1jJwCT T3DR3RNWh4X4xgewtMvxLJ2OFuvzu68+3thdcR5j03tF0efCpy4saGZs16MMeAcAAHdtyTAZnY7P QekspoYJ6ZiXtKR2duLCVKZ2OR4hv2H9wXfz740QqSuCpV1K8IPDQecP5G/+MwwKBwAAS9dn+VF0 fwqCC1jbjjSl5S8c968Us0+o9zSk45wTu6u78/UDt+WVteyZDsafcQpssNg6L1uxoLaLpV21GDQO AABWbEkwtDt0awAsYG2bEKHtouT7qmcl3JZBBtc/26Bi/8nPD68+sjxIZtXeX4UCnzic9HfPzSsZ NBVfB90n+co10MQFpj7LMljobCz60OJbx7wREmUePrQrZHoZVnt906t5txw/2VEkt27fOaCvm3Ux d66Y9Z1TGfvqMOgcwBmWbkheTkEehTK/oz0zLGf/1RmPjjFoTbw2l4q4RIfjs6J/5u2sej+dgioR wyEC5P7c7KJcBWyrzqB1AABw38aUywnFOwAUeXcnRGidEXdD3bzkZekDra/dYCCv9pNDa489FOgU 7XEKTWEjlNy0MqdotUL2VWdQOwAAuG990hRChI8ARCo1h17jd+KK9P/XMybyEn5b4AGKmrYVvH9k qavD3pyl4DS1lNDLV80t2aXgHKoz6B0AACz6OjnURyd8yPya8GcYtOayS1IfxIToy4fxg0L2lLTs LF1T8OfW5u4apjEfv8I2l6i96ukLj9UpPI/qDJlP6cJ943Sm5rZVBORupecy6vzLL0l90DE+8tJU nmUon6ONW458dOxvTqutfrQHpnumPciy7NXxeQ4PzKU6Q8YBnGHJhuTrAfISAD+l5/IRDOXT4m9s mJN453i9xpfHFbuBizrFHVXvHVpf+qxvj7M9zQNTdgBYmJtd/IEH5vIahpwDAID7v0lLc2noe6zD h88FIUJ7evD5xQtSlyeG+g3j14e9YLXXN60veebo3rpPU0TRyTSCrxf2CHBd92R2WbGH5vMahqQD AE6nFFsDHA8T0GXwXF0E0V8fUTA9/kbX5JjfZfJdwWlE6hLz6j47vLn8JfFUV2UmPNe01gXQx9uD /FcMlS3/zxmyDuAM961LmkUE4S0A7FJE+wEBumIsmcdnJy40ZYRekDrUMg8pFVHUtO3Yt5WvN5U3 700T4Qr1sIJKUHKDNzXqVIMh7wAAYNHXyRYfnfAoKL0DKlRJEqBpibVklE+M/Z1pVPhFSYN1Z+Ci Tldh09bj31e82Vbeui9JpC7ZXXckIILiBU2P8JcnflPYrsL8XgV3AGexZGPqNELpqxRIV1GGLdAQ fTwrPNs2JmLBsGjziJCBfJPQ2FXesKf249JDJ9fpmnuqhoNSk4pyCohAb1t5QYnsZjODBe4Afsai r5P1PlrhzwBdDkD1MF9CSGugPqY4PXRGd2ZYTlh8wOhUnWDwSo8gUheq2vJrDjduqi08tRUNnWUx LupQLADLDXoA+qi5Vf/YiqsK7GqL8Sa4AzgHyzYnJ4kiVoKSS9XW8jOceq1vVYgxviE+YJwrOXCi Jco8PCrIGBPkyXMEq72+qbI1v7a0ZXdbZet+NHZVBNmcHQlUbkdnxhCKjwFh2cqcwnK1tXgj3AH0 wX0bUucQiE8BJFNtLX3g0Ao+db66wFNBxujuAH0kDTBGavz1kdogY5TeXx/up9f6+eg0BrOPYIRA BJ1Ba/EDAJurq9Ml2h0UVOxytHbanJ32NltDp9VW39Nma7C3dNe4mnuqNS1dVYYOR2ugU7RFQaH8 CoYcIoTeu3JuyXdqC/FmuAPoB1eugSYuIOU2AA+BQY9CjqJUE0Iermwp+tfaq+BSW4y3wx2AG6xY k+HT7u+4CYSugILJRRz3IUAjQHNdpp5nn5pS3a22noECdwASWLo+yw+k624KsgxAsNp6hjinCMUT JnvnC4OlTJcn4Q5ABqfrEPb8HgK9DxSeiFfn/JdyAM8Qanx9ZU5+p9piBircATBgxQoIHZOTL6ZE eACgU9TWM5ihBPsB8oxFG/X+YCvPpQbcATBm2Ya0qSLE2yhwJfGyK7GBCgW6CLCGCPRVHsTDFu4A FGLR18kWH41wDRXo7YRirNp6BihHCejbLlH/2kBvwOGtcAfgAZatSx4rasg1oLgSQILaeryccgqy RgO6+sns4oNqixnscAfgSSjI0g0p51GBXA1Kr4CHMxC9FQqcIKBrRVFY89SFRXvU1jOU4A5ARRZv Sh0miHQBKOaDYAYAH7U1eQgXQA4Sii8pXF/kZpfuBwFVW9RQhDsAL2H5xmH+DmguAKUzCcg0AJkA BktasAtAPgXdLkD41uYUNw+GvnqDAe4AvJRFXydbDFpMEiFMBehkAKMAhKmtq5/UU+CQQMlOCrpd 0yPs4rn33gl3AAOIezYlhuugyxRFZBHQTICkAjQR6oUl1wGkHKCFFOSIICAfLlf+ypzSBpX0cNyE O4BBwIotCYZWpy5RI5IEEBoP0DAKEkwIgolIgimhwfhvyLI/QASA6gCcKc7RARAHQEUAbT/+rIlQ 0kQF2gSKUxRoIkCjKIgVgktTYfaxV6yYVdHj4V+Vw+FwOBwOh8PhcDgcDofD4XA4HA6Hw+FwOBwO h8PhcDgcDofD4XA4HA6Hw+FwOBwOh8PhcDgcDmfQ8/8BU6xF9kUZMogAAAAASUVORK5CYII= "
       width="67.73333"
       height="67.73333"
       preserveAspectRatio="none"
       id="image20"
       x="62.706253"
       y="99.747917"
       style="display:none;opacity:0.325243"
       inkscape:label="openSUSE_Reference" />
    <path
       style="display:none;fill:none;stroke:#73ba25;stroke-width:3.3;stroke-linecap:butt;stroke-linejoin:miter;stroke-miterlimit:4;stroke-dasharray:none;stroke-opacity:1"
       d="m 68.886159,134.08705 c 0.291037,-13.55882 8.393347,-27.03322 26.363841,-28.25371 19.96876,0.0416 28.56004,13.77441 29.00966,29.00966 -1.44044,17.91136 -14.11646,26.10682 -27.59225,26.55283 -18.503933,-1.00724 -27.107842,-14.03756 -27.781251,-27.30878 z"
       id="path24"
       sodipodi:nodetypes="ccccc"
       inkscape:export-xdpi="443.26999"
       inkscape:export-ydpi="443.26999" />
    <path
       id="path865"
       style="display:inline;fill:#73ba25;fill-opacity:1;stroke:#73ba25;stroke-width:0.999999px;stroke-linecap:butt;stroke-linejoin:miter;stroke-opacity:1"
       d="m 397.85742,431.07227 c -15.7598,5.02265 -19.69153,9.08394 -27.85742,15 -0.55218,-4.80749 2.21111,-12.41988 -3.92773,-12.5 -8.40064,2.61256 -15.64662,8.40498 -22.14454,16.25 -12.02668,3.12317 -24.14074,5.26958 -35.71289,13.39257 -21.16475,19.62433 -35.95407,46.47759 -44.10742,61.24889 11.35488,50.00545 49.46906,80.25889 97.05909,82.3569 -0.62261,-9.2553 -3.92035,-21.2343 -0.45167,-35.03547 5.07879,-14.85665 10.00031,-29.84952 22.5,-38.21289 2.02357,-2.02487 4.40473,-2.61938 7.14258,-1.78711 9.63054,8.28608 30.22876,-14.72179 31.07031,-18.57032 -3.95417,-5.39841 -11.56637,-8.44353 -17.85546,-39.64257 -7.8584,-14.59313 -12.70741,-13.48042 -17.85743,-17.14454 0.80498,-5.6026 4.72288,-14.75059 12.14258,-25.35546 z m -11.86133,58.29492 c 1.86613,0.0508 3.95641,0.29852 6.14649,0.63281 0.38464,6.73538 -2.09513,8.96903 -5,10.53516 -4.3448,-2.05384 -7.48781,-4.8579 -8.03516,-9.28516 1.29121,-1.50692 3.77846,-1.96753 6.88867,-1.88281 z"
       transform="scale(0.26458333)"
       inkscape:label="Cat_Head"
       sodipodi:nodetypes="ccccccccccccccscccs" />
    <ellipse
       style="display:inline;fill:none;stroke:#73ba25;stroke-width:3.29999"
       id="path853"
       cx="96.217033"
       cy="133.7684"
       rx="28.464205"
       ry="28.496632"
       inkscape:label="Cycle" />
  </g>
</svg>
